3,2016,1,1,1,3,35,30,40311,15000,15000,33000,3,2,0
3,2016,2,1,1,3,38,0,40311,18000,18000,33000,3,2,0
3,2016,3,0,4,0,1,-1,-1,0,0,33000,3,2,5
4,2016,1,0,1,3,69,15,05001,5000,-9,0,1,1,0
5,2016,1,0,1,3,36,46,43331,13000,13000,13000,1,1,0
6,2016,1,0,3,0,63,-1,-1,0,6500,11300,2,2,1
6,2016,2,0,3,0,91,-1,-1,0,4800,11300,2,2,1
7,2016,1,1,3,0,66,-1,-1,0,18000,37800,3,3,1
7,2016,2,1,3,0,70,-1,-1,0,4800,37800,3,3,1
7,2016,3,0,1,3,36,30,10313,15000,15000,37800,3,3,0
8,2016,1,1,3,0,70,-1,-1,0,-9,0,1,1,1
9,2016,1,0,1,3,43,70,34323,21000,21000,27000,2,2,0
9,2016,2,0,1,3,42,45,55314,6000,6000,27000,2,2,0
11,2016,4,0,1,3,22,24,20313,5000,5000,22500,5,5,0
11,2016,5,0,1,3,25,16,41312,3500,3500,22500,5,5,0
11,2016,6,0,3,0,17,-1,-1,0,0,22500,5,5,3
12,2016,3,0,4,0,1,-1,-1,0,0,0,3,2,5
13,2016,1,1,3,0,73,-1,-1,0,-9,0,3,3,1
13,2016,2,1,1,3,47,999,99999,-9,-9,0,3,3,0
13,2016,3,1,1,3,41,45,11331,17000,17000,0,3,3,0
14,2016,1,0,1,3,66,7,55314,1200,14880,14880,1,1,0
16,2016,1,1,1,2,36,66,40111,15000,15000,28000,2,2,0
16,2016,2,1,1,3,28,40,20313,13000,13000,28000,2,2,0
17,2016,1,1,1,3,44,50,10311,24000,24000,62800,3,3,0
17,2016,2,1,1,3,44,40,72331,34500,38800,62800,3,3,0
17,2016,3,0,3,0,13,-1,-1,0,0,62800,3,3,3
19,2016,1,0,1,3,39,44,56313,10000,10000,10000,5,4,0
19,2016,2,0,3,0,40,-1,-1,0,0,10000,5,4,4
19,2016,3,0,3,0,13,-1,-1,0,0,10000,5,4,3
19,2016,4,0,3,0,16,-1,-1,0,0,10000,5,4,3
19,2016,5,0,4,0,6,-1,-1,0,0,10000,5,4,3
20,2016,1,0,1,3,64,0,03001,-9,-9,0,2,2,0
22,2016,1,0,3,0,69,-1,-1,0,-9,0,1,1,1
23,2016,1,0,1,3,43,60,53314,13000,13000,13000,2,1,0
24,2016,1,0,1,3,29,12,41332,5000,8000,21000,2,2,0
24,2016,2,0,1,3,29,40,81331,11000,13000,21000,2,2,0
25,2016,1,0,1,3,48,45,90333,18000,18000,37500,5,5,0
25,2016,2,1,1,3,33,54,48312,11000,11000,37500,5,5,0
25,2016,3,0,1,3,22,25,72313,8500,8500,37500,5,5,0
25,2016,4,0,3,0,12,-1,-1,0,0,37500,5,5,3
25,2016,5,0,3,0,24,-1,-1,0,0,37500,5,5,3
26,2016,1,0,3,0,89,-1,-1,0,5200,10400,2,2,1
26,2016,2,0,3,0,84,-1,-1,0,5200,10400,2,2,1
27,2016,1,0,3,0,78,-1,-1,0,5200,10400,2,2,1
27,2016,2,1,3,0,89,-1,-1,0,5200,10400,2,2,1
28,2016,1,1,1,3,28,0,40312,9600,9600,20600,2,2,0
28,2016,2,1,1,3,26,35,40312,11000,11000,20600,2,2,0
29,2016,1,1,1,2,60,24,40111,8000,18000,18000,1,1,0
32,2016,1,0,1,3,59,52,34323,11000,11000,26000,3,3,0
32,2016,2,0,1,3,58,49,30314,10000,10000,26000,3,3,0
32,2016,3,0,1,3,22,25,10333,5000,5000,26000,3,3,0
33,2016,1,0,1,2,57,35,30132,15000,15000,15000,2,2,0
33,2016,2,0,3,0,56,-1,-1,0,0,15000,2,2,4
34,2016,1,0,3,0,83,-1,-1,0,4810,9620,2,2,1
34,2016,2,0,3,0,77,-1,-1,0,4810,9620,2,2,1
35,2016,1,1,1,3,54,40,07001,25000,25000,43959,5,5,0
35,2016,2,1,3,0,55,-1,-1,0,0,43959,5,5,4
35,2016,3,0,1,3,23,40,10311,10000,10000,43959,5,5,0
35,2016,4,0,1,3,22,20,30314,4000,4000,43959,5,5,0
35,2016,5,0,3,0,81,-1,-1,0,4959,43959,5,5,1
23,2016,2,0,4,0,2,-1,-1,0,0,13000,2,1,5
36,2016,1,1,1,3,31,45,20331,25000,25000,45000,3,2,0
36,2016,2,1,1,3,30,35,07001,20000,20000,45000,3,2,0
36,2016,3,0,4,0,1,-1,-1,0,0,45000,3,2,5
37,2016,1,0,1,3,58,25,55314,6000,9500,9500,2,2,0
38,2016,1,1,3,0,43,-1,-1,0,-9,0,1,1,4
39,2016,1,0,1,3,46,45,20332,10000,22000,35500,2,2,0
39,2016,2,0,1,3,21,60,10333,13500,13500,35500,2,2,0
40,2016,1,0,1,3,63,15,57313,-9,-9,0,1,1,0
41,2016,1,0,3,0,96,-1,-1,0,12000,52000,5,5,1
41,2016,2,0,1,2,74,10,30112,0,9000,52000,5,5,0
41,2016,3,0,1,3,57,48,57313,10000,10000,52000,5,5,0
41,2016,4,0,1,3,33,48,42312,11000,21000,52000,5,5,0
41,2016,5,0,3,0,12,-1,-1,0,0,52000,5,5,3
42,2016,1,0,1,3,60,60,20332,30000,30000,42000,3,3,0
42,2016,2,0,1,2,56,24,53113,8000,8000,42000,3,3,0
43,2016,1,0,1,2,51,40,10113,20000,20000,37600,3,3,0
44,2016,2,1,1,3,65,40,40311,40000,40000,65000,2,2,0
46,2016,1,1,1,3,34,35,41312,16000,16000,16000,1,1,0
48,2016,1,0,1,2,27,32,41112,-9,-9,0,2,2,0
48,2016,2,0,3,0,27,-1,-1,0,0,0,2,2,4
49,2016,1,1,3,0,66,-1,-1,0,-9,0,2,2,1
49,2016,2,1,3,0,66,-1,-1,0,4966,0,2,2,1
50,2016,1,1,2,3,48,-1,-1,0,0,0,2,2,0
50,2016,2,1,2,3,55,-1,-1,0,0,0,2,2,0
51,2016,1,0,3,0,63,-1,-1,0,-9,0,2,2,1
51,2016,2,0,1,3,24,38,10333,-9,-9,0,2,2,0
52,2016,1,1,1,3,30,35,82312,18000,18000,32000,3,2,0
53,2016,1,0,1,1,59,51,05002,12000,12000,12000,1,1,0
54,2016,1,0,1,3,45,40,10333,20000,20000,22150,3,2,0
54,2016,2,0,3,0,42,-1,-1,0,0,22150,3,2,4
55,2016,1,0,2,2,61,-1,-1,0,-9,0,1,1,0
56,2016,1,0,1,2,30,24,30132,3000,4300,4300,1,1,0
57,2016,1,0,1,3,40,40,41312,19000,19000,19000,2,2,0
57,2016,2,1,3,0,53,-1,-1,0,0,19000,2,2,6
58,2016,1,0,1,3,56,40,10333,-9,-9,0,2,2,0
58,2016,3,0,1,3,21,35,43312,-9,-9,0,2,2,0
59,2016,1,0,1,1,31,66,05002,-9,-9,0,2,2,0
59,2016,2,1,3,0,28,-1,-1,0,0,0,2,2,4
60,2016,1,1,1,3,34,36,11331,13500,25500,40500,2,2,0
60,2016,2,0,1,3,36,40,80323,15000,15000,40500,2,2,0
61,2016,1,0,1,3,44,50,11312,22000,25000,31000,3,3,0
61,2016,2,0,1,3,22,35,80312,6000,6000,31000,3,3,0
61,2016,3,0,2,0,19,-1,-1,0,0,31000,3,3,0
42,2016,4,0,1,3,20,24,30314,4000,4000,42000,3,3,0
62,2016,1,0,1,2,30,48,34123,20000,20000,20000,1,1,0
63,2016,1,1,1,3,34,40,10333,12000,15000,15000,1,1,0
64,2016,1,0,1,2,47,28,41112,8000,8200,8200,1,1,0
66,2016,1,0,1,3,45,28,10313,-9,-9,0,5,3,0
66,2016,2,0,2,0,40,-1,-1,0,0,0,5,3,0
66,2016,3,0,3,0,17,-1,-1,0,0,0,5,3,3
66,2016,4,0,4,0,7,-1,-1,0,0,0,5,3,3
66,2016,5,0,4,0,5,-1,-1,0,0,0,5,3,5
67,2016,1,1,1,3,25,45,30333,15000,-9,0,1,1,0
68,2016,1,0,1,2,73,0,92112,3000,7900,7900,1,1,0
69,2016,1,0,1,3,19,20,10333,3600,3600,3600,1,1,0
71,2016,1,1,1,3,43,40,10312,20000,20600,42700,3,3,0
72,2016,1,1,3,0,71,-1,-1,0,9800,9800,1,1,1
73,2016,1,0,1,3,59,48,56203,4800,4800,4800,1,1,0
74,2016,1,0,1,2,45,44,30113,15000,15000,33800,3,3,0
74,2016,2,1,1,3,50,36,40332,18000,18800,33800,3,3,0
74,2016,3,0,3,0,17,-1,-1,0,0,33800,3,3,6
75,2016,1,0,1,2,41,50,34123,5000,5000,25300,4,3,0
75,2016,2,1,1,3,35,40,10333,20300,20300,25300,4,3,0
75,2016,3,0,3,0,12,-1,-1,0,0,25300,4,3,3
75,2016,4,0,4,0,9,-1,-1,0,0,25300,4,3,3
76,2016,1,1,1,2,60,48,10112,-9,-9,0,2,2,0
76,2016,2,0,2,3,20,-1,-1,0,0,0,2,2,0
77,2016,1,0,1,2,59,54,80113,10000,10000,15960,4,4,0
77,2016,2,0,1,3,56,12,56314,2300,2300,15960,4,4,0
77,2016,3,0,3,0,26,-1,-1,0,3660,15960,4,4,1
77,2016,4,0,3,0,16,-1,-1,0,0,15960,4,4,3
78,2016,1,1,1,3,60,8,10313,-9,-9,0,2,2,0
52,2016,2,0,1,3,25,0,20333,14000,14000,32000,3,2,0
80,2016,1,0,1,3,37,56,32314,-9,-9,0,4,3,0
80,2016,2,0,3,0,45,-1,-1,0,0,0,4,3,4
80,2016,3,0,3,0,10,-1,-1,0,0,0,4,3,3
80,2016,4,0,4,0,5,-1,-1,0,0,0,4,3,5
81,2016,1,1,1,2,69,24,40111,15000,29200,29200,1,1,0
82,2016,1,0,2,3,51,-1,-1,0,0,0,6,6,0
82,2016,2,0,3,0,89,-1,-1,0,-9,0,6,6,1
82,2016,3,0,2,3,53,-1,-1,0,0,0,6,6,0
82,2016,4,0,1,3,27,48,30313,-9,-9,0,6,6,0
82,2016,5,0,1,3,25,35,10339,-9,-9,0,6,6,0
82,2016,6,0,1,3,29,50,10339,-9,-9,0,6,6,0
84,2016,1,1,2,2,43,-1,-1,0,-9,0,2,2,0
85,2016,1,1,1,1,57,35,05001,-9,-9,0,4,4,0
85,2016,2,1,1,3,56,34,40311,50000,58000,0,4,4,0
85,2016,3,0,3,0,23,-1,-1,0,0,0,4,4,3
85,2016,4,0,2,0,20,-1,-1,0,0,0,4,4,0
86,2016,2,0,1,3,34,60,34323,10000,10000,24900,4,3,0
86,2016,3,0,3,0,64,-1,-1,0,4900,24900,4,3,1
86,2016,4,0,4,0,2,-1,-1,0,0,24900,4,3,5
87,2016,1,0,3,0,89,-1,-1,0,9000,9000,1,1,1
88,2016,1,0,1,2,64,0,82133,3000,3000,21000,2,2,0
88,2016,2,1,3,0,68,-1,-1,0,18000,21000,2,2,1
89,2016,1,1,1,3,75,6,41312,-9,-9,0,2,2,0
89,2016,2,1,1,3,74,18,41312,-9,-9,0,2,2,0
90,2016,1,0,1,3,52,40,20332,20000,20000,20000,1,1,0
92,2016,1,0,1,2,35,56,81132,10000,10000,10860,4,2,0
71,2016,2,1,1,3,44,40,10333,22000,22000,42700,3,3,0
71,2016,3,0,2,2,20,-1,-1,0,100,42700,3,3,0
20,2016,2,1,1,1,62,0,05001,-9,-9,0,2,2,0
94,2016,1,0,3,0,86,-1,-1,0,8700,8700,1,1,1
95,2016,1,1,1,3,46,40,50331,19000,19000,19000,1,1,0
96,2016,1,0,1,3,58,40,90322,14000,14000,18850,5,5,0
96,2016,2,0,3,0,54,-1,-1,0,0,18850,5,5,4
96,2016,3,0,2,3,19,-1,-1,0,0,18850,5,5,0
96,2016,4,0,3,0,13,-1,-1,0,0,18850,5,5,3
96,2016,5,0,3,0,84,-1,-1,0,4850,18850,5,5,1
97,2016,1,1,1,2,53,17,72113,7000,7000,18000,3,2,0
97,2016,2,0,1,3,43,45,56313,11000,11000,18000,3,2,0
97,2016,3,0,4,0,6,-1,-1,0,0,18000,3,2,3
78,2016,2,1,1,3,31,45,20333,-9,-9,0,2,2,0
98,2016,3,0,1,3,23,45,30313,-9,-9,0,3,3,0
99,2016,1,1,1,3,45,25,41332,15000,29900,29900,3,3,0
99,2016,2,0,3,0,15,-1,-1,0,0,29900,3,3,3
99,2016,3,0,3,0,14,-1,-1,0,0,29900,3,3,3
100,2016,1,1,3,0,27,-1,-1,0,6000,21000,2,2,4
100,2016,2,1,1,3,34,44,40311,11000,15000,21000,2,2,0
101,2016,1,1,1,3,31,32,40311,13000,20000,40000,4,2,0
101,2016,2,1,1,3,32,30,02001,20000,20000,40000,4,2,0
101,2016,3,0,4,0,2,-1,-1,0,0,40000,4,2,5
101,2016,4,0,4,0,1,-1,-1,0,0,40000,4,2,5
102,2016,1,0,3,0,43,-1,-1,0,4500,4500,4,3,4
102,2016,2,0,2,3,35,-1,-1,0,0,4500,4,3,0
102,2016,3,0,3,0,13,-1,-1,0,0,4500,4,3,3
102,2016,4,0,4,0,3,-1,-1,0,0,4500,4,3,5
103,2016,1,0,1,3,22,40,80313,7000,7000,7000,3,2,0
103,2016,2,0,3,0,21,-1,-1,0,0,7000,3,2,4
103,2016,3,0,4,0,1,-1,-1,0,0,7000,3,2,5
84,2016,2,0,1,3,30,40,20333,9000,9000,0,2,2,0
104,2016,1,0,1,2,61,45,50112,18000,18000,27000,2,2,0
104,2016,2,0,1,3,58,30,20333,9000,9000,27000,2,2,0
105,2016,1,0,3,0,86,-1,-1,0,-9,0,1,1,1
106,2016,1,1,1,3,37,45,40311,-9,-9,0,2,2,0
106,2016,2,1,1,3,38,54,20333,-9,-9,0,2,2,0
107,2016,1,0,1,3,48,40,34323,13000,13000,43000,4,4,0
107,2016,2,0,1,3,46,40,06001,30000,30000,43000,4,4,0
107,2016,3,0,3,0,17,-1,-1,0,0,43000,4,4,3
107,2016,4,0,3,0,13,-1,-1,0,0,43000,4,4,3
108,2016,1,0,1,3,34,40,92332,-9,-9,0,1,1,0
109,2016,1,1,2,3,25,-1,-1,0,25000,25000,2,2,0
109,2016,2,0,3,0,18,-1,-1,0,0,25000,2,2,3
110,2016,1,0,3,0,76,-1,-1,0,6000,12000,2,2,1
92,2016,2,0,3,0,32,-1,-1,0,860,10860,4,2,4
92,2016,3,0,4,0,3,-1,-1,0,0,10860,4,2,5
92,2016,4,0,4,0,1,-1,-1,0,0,10860,4,2,5
111,2016,1,0,3,0,80,-1,-1,0,-9,0,1,1,1
113,2016,1,1,1,3,62,32,40311,15000,15000,15000,3,3,0
113,2016,2,0,3,0,56,-1,-1,0,0,15000,3,3,4
113,2016,3,0,3,0,22,-1,-1,0,0,15000,3,3,3
114,2016,1,0,1,3,76,30,10313,5300,20300,20300,1,1,0
37,2016,2,0,3,0,15,-1,-1,0,0,9500,2,2,3
115,2016,1,0,1,2,74,40,53113,-9,-9,0,3,3,0
115,2016,2,1,3,0,69,-1,-1,0,-9,0,3,3,1
115,2016,3,1,1,3,40,40,42311,-9,-9,0,3,3,0
116,2016,1,1,1,1,50,999,05001,-9,-9,0,3,3,0
116,2016,2,0,1,2,55,0,80113,0,4800,0,3,3,0
116,2016,3,0,1,2,29,40,10133,-9,-9,0,3,3,0
117,2016,1,0,3,0,86,-1,-1,0,7825,7825,1,1,1
118,2016,1,1,3,0,75,-1,-1,0,10500,10500,1,1,1
119,2016,1,0,3,0,77,-1,-1,0,4300,4300,1,1,1
120,2016,1,0,1,2,69,49,33114,8000,12370,12370,2,2,0
121,2016,1,1,1,3,52,10,45313,8000,-9,0,3,3,0
123,2016,1,0,1,3,20,20,10333,3600,16600,16600,1,1,0
124,2016,1,0,3,0,70,-1,-1,0,4800,4800,1,1,1
125,2016,1,1,1,3,49,16,20333,5000,5000,22000,4,4,0
125,2016,2,0,1,3,52,40,80323,15000,15000,22000,4,4,0
125,2016,3,0,3,0,18,-1,-1,0,2000,22000,4,4,3
125,2016,4,0,3,0,15,-1,-1,0,0,22000,4,4,3
127,2016,1,0,3,0,80,-1,-1,0,54000,68600,7,5,1
127,2016,2,0,3,0,81,-1,-1,0,4800,68600,7,5,1
127,2016,3,0,1,3,46,48,72313,9800,9800,68600,7,5,0
127,2016,4,0,3,0,34,-1,-1,0,0,68600,7,5,4
127,2016,5,0,3,0,13,-1,-1,0,0,68600,7,5,3
127,2016,6,0,4,0,7,-1,-1,0,0,68600,7,5,3
127,2016,7,0,4,0,6,-1,-1,0,0,68600,7,5,3
110,2016,2,0,3,0,76,-1,-1,0,6000,12000,2,2,1
128,2016,1,0,3,0,83,-1,-1,0,11200,11200,1,1,1
43,2016,2,0,1,3,55,50,30314,16000,16000,37600,3,3,0
43,2016,3,0,1,3,26,6,57314,1600,1600,37600,3,3,0
129,2016,1,0,3,0,77,-1,-1,0,4800,6600,2,2,1
129,2016,2,1,3,0,85,-1,-1,0,1800,6600,2,2,1
130,2016,1,0,1,3,33,45,99999,-9,-9,0,2,2,0
130,2016,2,0,3,0,33,-1,-1,0,-1,0,2,2,0
131,2016,1,0,1,1,42,50,05002,15000,15000,15000,3,3,0
131,2016,2,0,3,0,10,-1,-1,0,0,15000,3,3,3
131,2016,3,0,3,0,20,-1,-1,0,0,15000,3,3,3
132,2016,1,1,1,3,57,40,81201,30000,30000,50000,4,4,0
132,2016,2,1,1,3,54,30,81331,20000,20000,50000,4,4,0
132,2016,3,0,3,0,22,-1,-1,0,0,50000,4,4,3
132,2016,4,0,3,0,20,-1,-1,0,0,50000,4,4,3
133,2016,1,1,3,0,80,-1,-1,0,16000,16000,1,1,1
134,2016,1,0,1,1,70,35,05002,14000,18800,18800,1,1,0
135,2016,1,1,1,3,45,40,81331,25000,28000,40000,5,3,0
54,2016,3,0,4,0,5,-1,-1,0,2150,22150,3,2,5
136,2016,1,1,1,3,49,60,40312,18000,18000,30000,4,4,0
136,2016,2,1,1,3,45,30,20332,12000,12000,30000,4,4,0
136,2016,3,0,3,0,13,-1,-1,0,0,30000,4,4,3
136,2016,4,0,3,0,10,-1,-1,0,0,30000,4,4,3
137,2016,1,1,1,2,61,36,40113,5000,7000,19000,4,4,0
137,2016,2,0,1,3,39,48,30314,10000,12000,19000,4,4,0
137,2016,3,0,3,0,14,-1,-1,0,0,19000,4,4,3
137,2016,4,0,3,0,13,-1,-1,0,0,19000,4,4,3
139,2016,1,0,1,3,28,45,30333,12000,12000,12000,1,1,0
140,2016,1,1,1,3,58,2,41312,1600,3700,3700,1,1,0
141,2016,1,0,1,3,39,45,10313,20000,20000,20000,2,2,0
141,2016,2,0,3,0,13,-1,-1,0,0,20000,2,2,3
142,2016,1,0,3,0,72,-1,-1,0,4800,9600,2,2,1
142,2016,2,0,3,0,82,-1,-1,0,4800,9600,2,2,1
143,2016,1,0,1,3,67,35,10333,10000,10000,10000,1,1,0
144,2016,1,1,1,2,67,6,40112,1500,6200,6200,1,1,0
145,2016,1,0,3,0,62,-1,-1,0,4800,30600,3,3,1
145,2016,2,1,1,3,32,30,40332,10800,10800,30600,3,3,0
145,2016,3,0,1,3,35,44,10333,15000,15000,30600,3,3,0
146,2016,1,1,3,0,72,-1,-1,0,19000,19000,1,1,1
135,2016,2,1,3,0,44,-1,-1,0,0,40000,5,3,4
135,2016,3,0,4,0,9,-1,-1,0,0,40000,5,3,3
52,2016,3,0,4,0,1,-1,-1,0,0,32000,3,2,5
149,2016,1,1,1,3,57,28,40312,11000,22000,22000,1,1,0
150,2016,1,1,1,1,83,36,05001,-9,-9,0,1,1,0
152,2016,1,0,1,2,47,78,34123,-9,-9,0,3,3,0
152,2016,2,0,3,0,47,-1,-1,0,0,0,3,3,4
152,2016,3,0,3,0,12,-1,-1,0,0,0,3,3,3
153,2016,1,1,2,3,63,-1,-1,0,50600,50600,1,1,0
154,2016,1,1,1,3,50,40,41312,10000,13000,30000,3,2,0
154,2016,2,1,1,3,46,40,41312,12000,17000,30000,3,2,0
154,2016,3,0,4,0,8,-1,-1,0,0,30000,3,2,3
155,2016,1,0,3,0,79,-1,-1,0,8000,17500,2,2,1
155,2016,2,0,3,0,70,-1,-1,0,9500,17500,2,2,1
156,2016,1,0,1,3,48,50,40311,-9,-9,0,4,4,0
157,2016,1,1,1,3,39,55,32314,3000,3000,4650,6,2,0
157,2016,2,1,2,0,34,-1,-1,0,1650,4650,6,2,0
157,2016,3,0,4,0,8,-1,-1,0,0,4650,6,2,3
157,2016,4,0,4,0,5,-1,-1,0,0,4650,6,2,5
157,2016,5,0,4,0,4,-1,-1,0,0,4650,6,2,5
158,2016,1,1,1,3,47,36,03001,75000,75000,95000,4,2,0
158,2016,2,1,2,3,38,-1,-1,0,20000,95000,4,2,0
158,2016,3,0,4,0,5,-1,-1,0,0,95000,4,2,5
158,2016,4,0,4,0,2,-1,-1,0,0,95000,4,2,5
159,2016,1,1,1,3,32,40,42311,12000,12000,12000,2,1,0
159,2016,2,0,4,0,3,-1,-1,0,0,12000,2,1,5
161,2016,1,1,3,0,72,-1,-1,0,14000,14000,1,1,1
162,2016,1,0,1,2,57,12,72113,8000,8000,8000,1,1,0
163,2016,1,0,1,3,29,60,30314,11000,11000,25000,2,2,0
163,2016,2,1,1,3,25,50,30332,14000,14000,25000,2,2,0
164,2016,1,1,1,3,57,20,30333,6800,8000,8000,1,1,0
165,2016,1,0,1,2,49,21,58113,3000,5800,5800,3,3,0
165,2016,2,0,3,0,38,-1,-1,0,0,5800,3,3,4
165,2016,3,0,3,0,10,-1,-1,0,0,5800,3,3,3
166,2016,1,0,1,3,25,24,41312,12000,12000,21000,2,2,0
166,2016,2,0,1,3,23,45,80332,9000,9000,21000,2,2,0
167,2016,1,1,1,3,28,0,81332,18000,18000,34000,2,2,0
167,2016,2,1,1,3,36,0,45332,16000,16000,34000,2,2,0
168,2016,1,0,3,0,75,-1,-1,0,7000,7000,1,1,1
169,2016,1,1,1,3,40,35,10333,21000,21000,21000,1,1,0
170,2016,1,0,1,3,23,20,30313,-9,-9,0,2,2,0
170,2016,2,0,3,0,17,-1,-1,0,0,0,2,2,3
171,2016,1,0,1,3,50,50,10313,18000,18000,18000,4,4,0
171,2016,2,1,2,0,50,-1,-1,0,0,18000,4,4,0
171,2016,3,0,3,0,20,-1,-1,0,0,18000,4,4,3
171,2016,4,0,3,0,14,-1,-1,0,0,18000,4,4,3
156,2016,2,0,2,3,46,-1,-1,0,0,0,4,4,0
156,2016,3,0,2,3,21,-1,-1,0,0,0,4,4,0
173,2016,1,0,2,0,21,-1,-1,0,3000,3000,1,1,0
174,2016,1,0,1,1,71,0,06001,-9,-9,0,2,2,0
174,2016,2,0,3,0,77,-1,-1,0,0,0,2,2,4
176,2016,1,0,1,3,37,60,47313,10000,50000,50000,1,1,0
177,2016,1,0,1,2,53,40,41112,20000,-9,0,3,2,0
177,2016,2,0,3,0,53,-1,-1,0,0,0,3,2,4
177,2016,3,0,4,0,6,-1,-1,0,0,0,3,2,3
178,2016,1,0,1,2,51,70,34123,-9,-9,0,4,3,0
179,2016,1,0,3,0,22,-1,-1,0,16000,16000,1,1,3
180,2016,1,0,1,2,58,5,34123,4000,4000,5500,3,3,0
180,2016,2,0,3,0,59,-1,-1,0,0,5500,3,3,4
180,2016,3,0,1,3,22,16,80313,1500,1500,5500,3,3,0
181,2016,1,0,1,3,26,36,30333,-9,-9,0,4,2,0
181,2016,2,0,1,3,30,35,30333,-9,-9,0,4,2,0
181,2016,3,0,4,0,5,-1,-1,0,0,0,4,2,5
181,2016,4,0,4,0,4,-1,-1,0,0,0,4,2,5
182,2016,1,1,1,3,26,45,10333,10000,10000,18600,3,3,0
182,2016,2,0,1,3,50,30,55314,8600,8600,18600,3,3,0
182,2016,3,0,3,0,16,-1,-1,0,0,18600,3,3,3
183,2016,1,1,1,3,52,45,20332,-9,-9,0,5,5,0
184,2016,1,0,3,0,72,-1,-1,0,16000,20800,2,2,1
121,2016,2,0,3,0,15,-1,-1,0,0,0,3,3,3
121,2016,3,0,3,0,14,-1,-1,0,0,0,3,3,3
185,2016,1,0,1,3,43,70,53314,9000,9000,9000,5,5,0
185,2016,2,0,3,0,43,-1,-1,0,0,9000,5,5,4
185,2016,3,0,3,0,16,-1,-1,0,0,9000,5,5,3
185,2016,4,0,3,0,14,-1,-1,0,0,9000,5,5,3
185,2016,5,0,3,0,21,-1,-1,0,0,9000,5,5,3
186,2016,1,0,1,3,39,35,10332,13000,-9,0,2,2,0
186,2016,2,1,1,3,31,35,10333,13000,13000,0,2,2,0
187,2016,1,1,1,3,31,50,20332,50000,50000,50000,1,1,0
188,2016,1,0,1,3,38,40,20333,23000,23000,42500,2,2,0
188,2016,2,0,1,3,36,40,90313,19500,19500,42500,2,2,0
189,2016,1,0,1,3,33,48,53313,8000,8000,8000,1,1,0
190,2016,1,1,3,0,71,-1,-1,0,17500,17500,1,1,1
191,2016,1,0,1,2,56,40,45133,30000,30000,30000,1,1,0
192,2016,1,1,1,3,31,40,10333,12050,15050,15050,1,1,0
193,2016,1,1,1,3,41,40,10333,-9,-9,0,1,1,0
86,2016,1,0,1,3,35,45,20333,10000,10000,24900,4,3,0
194,2016,1,1,1,3,66,45,80202,15000,15000,19500,2,2,0
194,2016,2,0,3,0,65,-1,-1,0,4500,19500,2,2,1
196,2016,1,1,1,3,36,40,41332,12000,12000,22000,2,2,0
196,2016,2,0,1,3,35,40,20333,10000,10000,22000,2,2,0
197,2016,1,1,1,3,32,35,42312,15000,15000,15000,1,1,0
198,2016,1,0,3,0,46,-1,-1,0,4800,4800,2,2,1
198,2016,2,0,3,0,10,-1,-1,0,0,4800,2,2,3
199,2016,1,0,3,0,77,-1,-1,0,7000,7000,1,1,1
200,2016,1,0,1,3,33,45,55314,10000,10000,10000,3,2,0
200,2016,2,0,3,0,14,-1,-1,0,0,10000,3,2,3
200,2016,3,0,4,0,8,-1,-1,0,0,10000,3,2,3
183,2016,2,1,1,3,49,45,20331,15000,15000,0,5,5,0
183,2016,3,0,3,0,23,-1,-1,0,0,0,5,5,3
183,2016,4,0,3,0,21,-1,-1,0,0,0,5,5,3
183,2016,5,0,3,0,15,-1,-1,0,0,0,5,5,3
201,2016,1,0,1,3,51,35,10333,-9,-9,0,1,1,0
202,2016,1,0,3,0,46,-1,-1,0,780,17780,4,4,4
203,2016,1,0,1,3,43,24,10333,-9,-9,0,5,4,0
203,2016,2,0,1,3,45,25,07001,20000,20000,0,5,4,0
203,2016,3,0,3,0,17,-1,-1,0,0,0,5,4,3
203,2016,4,0,3,0,14,-1,-1,0,0,0,5,4,3
203,2016,5,0,4,0,7,-1,-1,0,0,0,5,4,3
204,2016,1,0,1,3,34,35,10333,8000,8000,21000,5,3,0
204,2016,2,0,1,3,36,14,10333,8000,13000,21000,5,3,0
204,2016,3,0,3,0,12,-1,-1,0,0,21000,5,3,3
204,2016,4,0,4,0,7,-1,-1,0,0,21000,5,3,3
204,2016,5,0,4,0,3,-1,-1,0,0,21000,5,3,5
205,2016,1,0,3,0,74,-1,-1,0,-9,0,4,3,1
205,2016,2,1,1,3,30,40,41312,17000,17000,0,4,3,0
205,2016,3,1,1,3,27,40,92332,11000,11000,0,4,3,0
205,2016,4,0,4,0,4,-1,-1,0,0,0,4,3,5
206,2016,1,1,3,0,72,-1,-1,0,-9,0,2,2,1
206,2016,2,0,1,2,54,40,72113,-9,-9,0,2,2,0
207,2016,1,1,1,3,63,32,10332,11000,19000,33000,4,4,0
208,2016,1,0,1,3,60,40,20332,13000,13000,13000,3,3,0
208,2016,2,0,3,0,60,-1,-1,0,0,13000,3,3,4
135,2016,4,0,4,0,6,-1,-1,0,0,40000,5,3,3
135,2016,5,0,3,0,84,-1,-1,0,12000,40000,5,3,1
209,2016,1,1,1,2,68,40,44131,6000,10700,15400,2,2,0
209,2016,2,1,3,0,72,-1,-1,0,4700,15400,2,2,1
210,2016,1,0,1,2,21,1,41111,300,10300,10300,1,1,0
211,2016,1,0,1,2,23,12,72113,7000,8000,8000,1,1,0
212,2016,1,1,3,0,60,-1,-1,0,16000,16000,1,1,1
213,2016,1,0,1,3,42,45,10333,6700,7700,17400,5,4,0
213,2016,2,0,1,3,44,45,80313,6700,6700,17400,5,4,0
213,2016,3,0,3,0,16,-1,-1,0,3000,17400,5,4,3
213,2016,4,0,4,0,6,-1,-1,0,0,17400,5,4,3
213,2016,5,0,3,0,28,-1,-1,0,0,17400,5,4,3
214,2016,1,0,1,3,49,40,30333,18000,18000,33000,4,4,0
157,2016,6,0,4,0,4,-1,-1,0,0,4650,6,2,5
215,2016,1,0,1,3,50,48,56313,10000,10000,26000,4,4,0
215,2016,2,0,1,3,52,40,40312,10000,10000,26000,4,4,0
215,2016,3,0,1,3,22,24,32314,6000,6000,26000,4,4,0
215,2016,4,0,3,0,24,-1,-1,0,0,26000,4,4,3
216,2016,1,0,1,3,46,6,41332,2700,12700,12700,1,1,0
217,2016,1,0,3,0,74,-1,-1,0,4800,9600,2,2,1
217,2016,2,0,3,0,70,-1,-1,0,4800,9600,2,2,1
218,2016,1,1,2,0,25,-1,-1,0,-9,0,2,2,0
218,2016,2,0,2,0,18,-1,-1,0,0,0,2,2,0
219,2016,1,0,1,3,53,30,41333,15000,15000,35000,4,4,0
219,2016,2,1,1,2,46,36,81132,10000,10000,35000,4,4,0
207,2016,2,1,3,0,62,-1,-1,0,0,33000,4,4,4
220,2016,1,0,3,0,84,-1,-1,0,7800,7800,1,1,1
221,2016,1,0,3,0,85,-1,-1,0,8500,8500,1,1,1
223,2016,1,1,1,2,39,50,81132,23000,23000,23000,3,2,0
223,2016,2,1,3,0,27,-1,-1,0,0,23000,3,2,4
223,2016,3,0,4,0,1,-1,-1,0,0,23000,3,2,5
225,2016,1,1,1,3,29,4,41312,1600,-9,0,2,2,0
225,2016,2,1,1,3,31,4,41331,2500,-9,0,2,2,0
226,2016,1,0,1,2,55,30,56113,15000,15000,33000,3,3,0
226,2016,2,1,1,3,53,40,41331,18000,18000,33000,3,3,0
226,2016,3,0,3,0,23,-1,-1,0,0,33000,3,3,3
214,2016,2,0,1,3,40,40,20333,15000,15000,33000,4,4,0
214,2016,3,0,3,0,18,-1,-1,0,0,33000,4,4,3
214,2016,4,0,3,0,14,-1,-1,0,0,33000,4,4,3
156,2016,4,0,3,0,17,-1,-1,0,0,0,4,4,3
228,2016,1,1,3,0,38,-1,-1,0,-9,0,3,2,4
228,2016,2,0,3,0,11,-1,-1,0,0,0,3,2,3
228,2016,3,0,4,0,9,-1,-1,0,0,0,3,2,3
229,2016,1,0,1,3,55,40,99999,20000,20000,60000,6,5,0
229,2016,2,0,1,3,48,36,05001,30000,30000,60000,6,5,0
229,2016,3,0,1,3,20,36,10333,10000,10000,60000,6,5,0
229,2016,4,0,3,0,17,-1,-1,0,0,60000,6,5,3
229,2016,5,0,3,0,10,-1,-1,0,0,60000,6,5,3
229,2016,6,0,4,0,8,-1,-1,0,0,60000,6,5,3
230,2016,1,0,1,3,47,45,20332,-9,-9,0,3,2,0
230,2016,2,1,1,3,37,0,30332,4000,4000,0,3,2,0
230,2016,3,0,4,0,1,-1,-1,0,0,0,3,2,5
231,2016,1,0,1,3,56,32,30333,23000,23000,46000,4,4,0
231,2016,2,1,1,2,53,24,40111,23000,23000,46000,4,4,0
219,2016,3,0,1,3,22,36,30313,10000,10000,35000,4,4,0
219,2016,4,0,3,0,17,-1,-1,0,0,35000,4,4,3
232,2016,1,1,1,3,55,40,07001,35000,35000,46000,3,3,0
232,2016,2,1,3,0,57,-1,-1,0,0,46000,3,3,4
232,2016,3,1,1,3,28,40,10333,11000,11000,46000,3,3,0
178,2016,2,0,1,3,40,40,10333,8500,8500,0,4,3,0
178,2016,3,0,3,0,18,-1,-1,0,0,0,4,3,3
178,2016,4,0,4,0,4,-1,-1,0,0,0,4,3,5
233,2016,1,1,1,2,52,16,40111,-9,-9,0,2,2,0
233,2016,2,0,1,3,30,36,10313,-9,-9,0,2,2,0
234,2016,1,1,1,3,31,28,11331,18000,18000,18000,1,1,0
235,2016,1,1,1,3,48,10,41331,10000,15000,24000,3,3,0
235,2016,2,0,1,3,22,35,30333,9000,9000,24000,3,3,0
235,2016,3,0,3,0,17,-1,-1,0,0,24000,3,3,3
236,2016,1,0,3,0,82,-1,-1,0,10000,10000,1,1,1
237,2016,1,0,1,3,35,45,20331,11500,11500,11500,1,1,0
238,2016,1,0,1,3,33,25,80322,5000,-9,0,3,3,0
184,2016,2,0,3,0,78,-1,-1,0,4800,20800,2,2,1
239,2016,1,1,1,2,31,2,41112,-9,-9,0,1,1,0
240,2016,1,0,3,0,80,-1,-1,0,-9,0,2,2,1
240,2016,2,0,3,0,80,-1,-1,0,-9,0,2,2,1
241,2016,1,0,1,3,43,45,80313,10000,10000,10000,1,1,0
242,2016,1,0,1,1,37,40,05001,25000,25000,25000,3,2,0
242,2016,2,1,3,0,37,-1,-1,0,0,25000,3,2,4
242,2016,3,0,4,0,1,-1,-1,0,0,25000,3,2,5
244,2016,1,0,1,3,60,56,20333,-9,-9,0,2,2,0
244,2016,2,0,1,3,62,24,41312,-9,-9,0,2,2,0
245,2016,1,0,1,3,54,48,20333,20000,20000,38000,3,3,0
245,2016,2,0,1,3,53,40,10202,15000,18000,38000,3,3,0
245,2016,3,0,3,0,21,-1,-1,0,0,38000,3,3,3
246,2016,1,1,3,0,61,-1,-1,0,42000,42000,1,1,1
231,2016,3,0,2,0,22,-1,-1,0,0,46000,4,4,0
231,2016,4,0,3,0,15,-1,-1,0,0,46000,4,4,3
247,2016,1,1,1,3,34,45,20331,-9,-9,0,2,2,0
248,2016,1,0,1,2,42,40,72113,6000,6000,10400,4,3,0
248,2016,2,0,1,2,41,84,30113,3000,4400,10400,4,3,0
248,2016,3,0,3,0,16,-1,-1,0,0,10400,4,3,3
248,2016,4,0,4,0,5,-1,-1,0,0,10400,4,3,5
249,2016,1,0,3,0,75,-1,-1,0,4700,4700,1,1,1
250,2016,1,0,1,2,56,48,30113,1700,1700,1700,1,1,0
251,2016,1,1,1,3,57,40,03001,-9,-9,0,3,3,0
251,2016,2,0,1,2,53,54,30113,-9,-9,0,3,3,0
251,2016,4,0,1,3,25,20,41312,-9,-9,0,3,3,0
252,2016,1,0,1,3,67,0,56314,6500,11300,34200,4,4,0
252,2016,2,0,3,0,62,-1,-1,0,5900,34200,4,4,1
252,2016,3,0,1,3,41,40,34323,10000,10000,34200,4,4,0
252,2016,4,0,1,3,21,72,34323,7000,7000,34200,4,4,0
253,2016,1,0,3,0,76,-1,-1,0,4800,9550,2,2,1
238,2016,2,0,3,0,13,-1,-1,0,0,0,3,3,3
238,2016,3,0,3,0,17,-1,-1,0,0,0,3,3,3
254,2016,1,0,1,3,52,20,56314,4500,-9,0,5,5,0
254,2016,2,0,1,3,18,20,56314,4500,4500,0,5,5,0
254,2016,3,0,3,0,11,-1,-1,0,0,0,5,5,3
256,2016,1,0,3,0,63,-1,-1,0,0,0,1,1,4
258,2016,1,0,1,3,70,30,43312,22000,24000,24000,2,2,0
258,2016,2,0,1,2,42,20,80113,0,0,24000,2,2,0
259,2016,1,0,1,3,36,40,42331,17000,17000,17000,1,1,0
260,2016,1,0,1,3,52,48,30333,11000,11000,11000,1,1,0
262,2016,1,0,1,1,46,55,07001,20000,20000,20000,1,1,0
202,2016,2,1,1,2,70,2,20111,2000,17000,17780,4,4,0
202,2016,3,0,3,0,14,-1,-1,0,0,17780,4,4,3
202,2016,4,0,3,0,11,-1,-1,0,0,17780,4,4,3
263,2016,1,1,1,3,52,32,10333,15000,15000,25000,3,2,0
263,2016,2,0,1,3,42,28,42313,10000,10000,25000,3,2,0
263,2016,3,0,4,0,7,-1,-1,0,0,25000,3,2,3
264,2016,1,0,1,3,45,48,30314,11000,-9,0,2,2,0
264,2016,2,0,1,3,42,48,20333,-9,-9,0,2,2,0
265,2016,1,1,1,3,43,40,43331,60000,60000,120000,2,2,0
265,2016,2,1,1,1,40,45,06001,60000,60000,120000,2,2,0
266,2016,1,1,1,3,57,45,20331,-9,-9,0,4,4,0
266,2016,2,0,3,0,55,-1,-1,0,0,0,4,4,4
266,2016,3,0,1,3,23,40,10313,-9,-9,0,4,4,0
266,2016,4,1,1,3,31,40,30333,-9,-9,0,4,4,0
267,2016,1,0,1,3,45,50,34323,4000,4000,5300,4,4,0
267,2016,2,0,3,0,42,-1,-1,0,1300,5300,4,4,4
253,2016,2,0,3,0,74,-1,-1,0,4750,9550,2,2,1
208,2016,3,0,3,0,84,-1,-1,0,0,13000,3,3,6
268,2016,1,0,3,0,90,-1,-1,0,9600,18600,2,2,1
268,2016,2,0,1,2,60,35,34123,9000,9000,18600,2,2,0
269,2016,2,0,1,3,48,40,72313,12100,12100,12100,1,1,0
270,2016,1,1,3,0,73,-1,-1,0,4900,4900,1,1,1
271,2016,1,0,1,3,49,0,36314,10000,10000,10000,1,1,0
272,2016,1,0,1,3,25,8,41331,1800,8750,8750,1,1,0
273,2016,1,0,1,3,55,12,41312,6000,20000,40000,4,4,0
273,2016,2,1,1,3,53,40,20202,20000,20000,40000,4,4,0
273,2016,3,0,3,0,26,-1,-1,0,0,40000,4,4,3
274,2016,1,0,1,3,64,0,10333,15000,19900,19900,1,1,0
275,2016,1,1,1,3,56,30,42311,19000,45500,45500,1,1,0
276,2016,1,1,3,0,76,-1,-1,0,4850,4850,1,1,1
277,2016,1,1,1,3,44,58,72331,-9,-9,0,3,2,0
277,2016,2,1,1,3,39,50,20332,-9,-9,0,3,2,0
267,2016,3,0,3,0,19,-1,-1,0,0,5300,4,4,3
207,2016,3,1,1,3,23,35,10312,5000,5000,33000,4,4,0
207,2016,4,0,3,0,86,-1,-1,0,9000,33000,4,4,1
279,2016,1,0,1,3,64,40,80313,10000,10000,26000,4,4,0
279,2016,2,1,1,3,55,44,30331,16000,16000,26000,4,4,0
279,2016,3,0,3,0,19,-1,-1,0,0,26000,4,4,3
279,2016,4,0,3,0,16,-1,-1,0,0,26000,4,4,3
280,2016,1,1,1,3,69,30,45331,10000,18000,18000,1,1,0
281,2016,1,1,1,3,45,50,11331,35000,41000,41000,2,1,0
281,2016,2,0,4,0,4,-1,-1,0,0,41000,2,1,5
282,2016,1,0,3,0,81,-1,-1,0,-9,0,1,1,1
283,2016,1,0,3,0,71,-1,-1,0,4900,16900,2,2,1
283,2016,2,0,3,0,68,-1,-1,0,12000,16900,2,2,1
273,2016,4,0,3,0,23,-1,-1,0,0,40000,4,4,3
12,2016,1,1,1,3,36,40,10201,-9,-9,0,3,2,0
12,2016,2,1,1,3,36,40,48313,-9,-9,0,3,2,0
284,2016,1,0,1,3,37,15,55314,2500,8600,8600,3,3,0
284,2016,2,0,3,0,13,-1,-1,0,0,8600,3,3,3
284,2016,3,0,3,0,15,-1,-1,0,0,8600,3,3,3
285,2016,1,0,3,0,79,-1,-1,0,-9,0,2,2,1
285,2016,2,0,3,0,78,-1,-1,0,-9,0,2,2,1
286,2016,1,0,1,3,36,44,40312,5000,5000,5000,1,1,0
287,2016,1,0,3,0,87,-1,-1,0,15000,15000,1,1,1
288,2016,1,0,3,0,86,-1,-1,0,-9,0,2,2,1
288,2016,2,0,1,3,30,10,10333,6000,6000,0,2,2,0
289,2016,1,1,1,2,42,84,46112,9000,9000,26000,6,5,0
289,2016,2,0,1,3,44,35,10333,17000,17000,26000,6,5,0
289,2016,3,0,3,0,15,-1,-1,0,0,26000,6,5,3
289,2016,4,0,3,0,10,-1,-1,0,0,26000,6,5,3
289,2016,5,0,4,0,8,-1,-1,0,0,26000,6,5,3
289,2016,6,0,3,0,19,-1,-1,0,0,26000,6,5,3
290,2016,1,0,1,3,33,8,41312,11000,-9,0,1,1,0
291,2016,1,0,1,3,40,54,80323,12000,12000,19000,6,6,0
291,2016,2,0,1,3,33,54,30314,4800,7000,19000,6,6,0
291,2016,3,0,3,0,16,-1,-1,0,0,19000,6,6,3
291,2016,4,0,3,0,14,-1,-1,0,0,19000,6,6,3
291,2016,5,0,3,0,12,-1,-1,0,0,19000,6,6,3
291,2016,6,0,2,3,23,-1,-1,0,0,19000,6,6,0
292,2016,1,0,2,0,48,-1,-1,0,0,0,4,4,0
292,2016,2,0,1,2,48,8,34123,-9,-9,0,4,4,0
292,2016,3,0,1,3,22,34,36314,-9,-9,0,4,4,0
292,2016,4,0,3,0,14,-1,-1,0,0,0,4,4,3
293,2016,1,0,3,0,73,-1,-1,0,8300,22300,2,2,1
294,2016,1,1,1,3,37,35,10313,21000,21000,29500,2,2,0
294,2016,2,0,1,3,37,56,80323,8500,8500,29500,2,2,0
295,2016,1,1,3,0,67,-1,-1,0,8600,13400,2,2,1
295,2016,2,0,3,0,59,-1,-1,0,4800,13400,2,2,1
296,2016,1,0,2,3,53,-1,-1,0,-9,0,1,1,0
297,2016,1,0,1,3,42,36,56314,9000,9000,9000,1,1,0
298,2016,1,1,1,3,52,30,46311,-9,-9,0,4,4,0
298,2016,2,0,1,2,50,30,45112,-9,-9,0,4,4,0
298,2016,3,0,3,0,14,-1,-1,0,0,0,4,4,3
298,2016,4,0,3,0,10,-1,-1,0,0,0,4,4,3
300,2016,1,0,1,3,29,40,20333,15000,15000,15000,1,1,0
302,2016,1,0,1,2,52,18,57113,-9,-9,0,3,3,0
302,2016,2,0,1,2,26,30,50112,4000,4000,0,3,3,0
302,2016,3,0,3,0,16,-1,-1,0,0,0,3,3,3
247,2016,2,0,1,2,37,40,58113,-9,-9,0,2,2,0
303,2016,1,0,3,0,36,-1,-1,0,4500,4500,5,3,4
303,2016,2,0,3,0,11,-1,-1,0,0,4500,5,3,3
303,2016,3,0,3,0,10,-1,-1,0,0,4500,5,3,3
303,2016,4,0,4,0,6,-1,-1,0,0,4500,5,3,3
303,2016,5,0,4,0,3,-1,-1,0,0,4500,5,3,5
304,2016,1,1,1,3,42,50,30332,-9,-9,0,5,3,0
304,2016,2,1,3,0,41,-1,-1,0,0,0,5,3,4
304,2016,3,0,3,0,11,-1,-1,0,0,0,5,3,3
304,2016,4,0,4,0,5,-1,-1,0,0,0,5,3,5
304,2016,5,0,4,0,9,-1,-1,0,0,0,5,3,3
305,2016,1,1,1,3,59,32,30333,-9,-9,0,3,3,0
305,2016,2,0,1,1,57,36,05002,-9,-9,0,3,3,0
305,2016,3,0,1,3,23,24,10333,-9,-9,0,3,3,0
293,2016,2,1,1,3,42,50,10202,14000,14000,22300,2,2,0
307,2016,1,1,1,3,50,40,10311,-9,-9,0,3,3,0
307,2016,2,0,3,0,23,-1,-1,0,0,0,3,3,3
307,2016,3,0,3,0,16,-1,-1,0,0,0,3,3,3
308,2016,1,0,3,0,92,-1,-1,0,5000,5000,1,1,1
309,2016,1,1,3,0,86,-1,-1,0,23000,23000,1,1,1
254,2016,4,0,3,0,16,-1,-1,0,0,0,5,5,3
254,2016,5,0,3,0,13,-1,-1,0,0,0,5,5,3
310,2016,1,1,3,0,90,-1,-1,0,-9,0,1,1,1
311,2016,1,0,1,3,33,60,30314,9300,9300,18250,3,2,0
311,2016,2,0,1,3,25,0,30314,8000,8950,18250,3,2,0
311,2016,3,0,4,0,1,-1,-1,0,0,18250,3,2,5
312,2016,1,0,1,3,70,40,10313,-9,-9,0,2,2,0
312,2016,2,0,3,0,68,-1,-1,0,4900,0,2,2,1
313,2016,1,1,1,3,51,10,41312,9000,-9,0,4,4,0
313,2016,2,1,1,3,52,3,41312,1800,1800,0,4,4,0
313,2016,3,0,2,3,26,-1,-1,0,0,0,4,4,0
314,2016,1,0,1,3,61,6,55314,800,5100,14600,2,2,0
314,2016,2,0,1,3,27,40,36333,9500,9500,14600,2,2,0
315,2016,1,0,1,3,55,60,10333,14000,14000,19900,6,6,0
315,2016,2,0,1,3,45,4,55314,1000,1000,19900,6,6,0
315,2016,3,0,3,0,82,-1,-1,0,4900,19900,6,6,1
315,2016,4,0,3,0,19,-1,-1,0,0,19900,6,6,3
315,2016,5,0,3,0,17,-1,-1,0,0,19900,6,6,3
315,2016,6,0,2,3,19,-1,-1,0,0,19900,6,6,0
316,2016,1,0,1,2,49,50,20112,8000,8000,8000,2,2,0
316,2016,2,0,2,2,51,-1,-1,0,0,8000,2,2,0
317,2016,1,1,1,3,54,30,41331,12000,12000,12000,1,1,0
318,2016,1,0,3,0,75,-1,-1,0,7900,7900,3,3,1
318,2016,2,0,3,0,16,-1,-1,0,0,7900,3,3,3
318,2016,3,0,3,0,11,-1,-1,0,0,7900,3,3,3
319,2016,1,0,3,0,96,-1,-1,0,4700,4700,2,2,1
319,2016,2,1,1,3,62,40,70331,0,0,4700,2,2,0
320,2016,1,0,3,0,83,-1,-1,0,4900,13900,2,2,1
320,2016,2,0,3,0,81,-1,-1,0,9000,13900,2,2,1
322,2016,1,0,3,0,80,-1,-1,0,3200,10400,2,2,1
322,2016,2,0,1,3,28,45,56314,7200,7200,10400,2,2,0
11,2016,1,0,1,3,53,50,82313,14000,14000,22500,5,5,0
11,2016,2,0,3,0,55,-1,-1,0,0,22500,5,5,4
313,2016,4,0,1,3,20,4,90314,0,0,0,4,4,0
323,2016,1,0,3,0,66,-1,-1,0,-9,0,2,2,1
323,2016,2,1,3,0,65,-1,-1,0,-9,0,2,2,1
324,2016,1,0,1,3,46,30,10332,50000,50000,64000,2,2,0
324,2016,2,1,3,0,66,-1,-1,0,14000,64000,2,2,1
325,2016,1,1,1,2,55,18,58112,14000,14000,14000,1,1,0
277,2016,3,0,4,0,1,-1,-1,0,0,0,3,2,5
326,2016,1,0,3,0,59,-1,-1,0,-9,0,1,1,2
327,2016,1,1,1,3,48,20,45332,20000,25000,50000,3,2,0
327,2016,2,1,1,3,43,35,10333,25000,25000,50000,3,2,0
327,2016,3,0,4,0,4,-1,-1,0,0,50000,3,2,5
329,2016,1,1,1,3,55,27,41331,-9,-9,0,2,2,0
329,2016,2,1,1,3,42,48,40311,-9,-9,0,2,2,0
44,2016,1,1,3,0,73,-1,-1,0,25000,65000,2,2,1
267,2016,4,0,3,0,12,-1,-1,0,0,5300,4,4,3
330,2016,1,0,1,3,41,45,72313,8000,8000,11700,6,4,0
330,2016,2,0,1,3,41,9,55314,2000,3700,11700,6,4,0
330,2016,3,0,3,0,19,-1,-1,0,0,11700,6,4,3
330,2016,4,0,3,0,18,-1,-1,0,0,11700,6,4,3
330,2016,5,0,4,0,5,-1,-1,0,0,11700,6,4,5
330,2016,6,0,4,0,2,-1,-1,0,0,11700,6,4,5
331,2016,1,0,2,3,42,-1,-1,0,0,0,2,2,0
331,2016,2,1,1,3,39,36,07001,-9,-9,0,2,2,0
332,2016,1,0,1,2,57,6,43131,15000,15000,24600,2,2,0
332,2016,2,0,3,0,90,-1,-1,0,9600,24600,2,2,1
333,2016,3,0,4,0,3,-1,-1,0,0,0,3,2,5
334,2016,1,1,1,3,35,72,40311,14000,14000,14000,1,1,0
335,2016,1,0,1,3,62,45,20312,15000,15000,43000,3,3,0
335,2016,2,1,1,1,64,40,05001,20000,20000,43000,3,3,0
335,2016,3,0,1,3,21,30,10313,8000,8000,43000,3,3,0
336,2016,1,0,1,3,41,23,20333,14000,-9,0,3,1,0
336,2016,2,0,4,0,5,-1,-1,0,0,0,3,1,5
336,2016,3,0,4,0,3,-1,-1,0,0,0,3,1,5
337,2016,1,1,1,2,68,39,40111,-9,-9,0,3,3,0
337,2016,2,1,1,2,62,25,20131,-9,-9,0,3,3,0
337,2016,3,0,1,3,23,40,20313,-9,-9,0,3,3,0
338,2016,1,1,1,3,44,10,41332,8500,-9,0,3,3,0
338,2016,2,0,3,0,11,-1,-1,0,0,0,3,3,3
338,2016,3,0,3,0,15,-1,-1,0,0,0,3,3,3
340,2016,3,0,3,0,16,-1,-1,0,0,0,4,4,3
340,2016,4,0,3,0,11,-1,-1,0,0,0,4,4,3
341,2016,1,1,1,3,53,18,10313,-9,-9,0,3,3,0
341,2016,2,1,3,0,56,-1,-1,0,-1,0,3,3,0
341,2016,3,0,3,0,23,-1,-1,0,-1,0,3,3,0
342,2016,1,0,3,0,68,-1,-1,0,10300,44800,5,4,1
342,2016,2,0,1,2,62,20,34123,3000,4500,44800,5,4,0
342,2016,3,0,1,3,33,10,56314,25000,25000,44800,5,4,0
342,2016,4,0,4,0,5,-1,-1,0,0,44800,5,4,5
342,2016,5,0,1,2,34,4,92132,2000,5000,44800,5,4,0
343,2016,1,1,1,2,53,40,72132,-9,-9,0,4,4,0
344,2016,2,0,1,3,30,40,82332,-9,-9,0,2,2,0
345,2016,1,0,1,3,40,54,06001,18000,18000,18000,4,2,0
345,2016,2,0,3,0,31,-1,-1,0,0,18000,4,2,1
345,2016,3,0,4,0,8,-1,-1,0,0,18000,4,2,3
345,2016,4,0,4,0,1,-1,-1,0,0,18000,4,2,5
346,2016,1,0,1,1,39,32,05001,-9,-9,0,2,2,0
347,2016,6,0,3,0,20,-1,-1,0,0,0,7,6,3
347,2016,7,0,1,2,40,23,30113,-9,-9,0,7,6,0
348,2016,1,1,3,0,68,-1,-1,0,4900,4900,1,1,1
349,2016,1,0,1,3,26,30,10333,12000,13000,28900,3,2,0
349,2016,2,0,1,3,31,45,30332,14900,15900,28900,3,2,0
349,2016,3,0,4,0,2,-1,-1,0,0,28900,3,2,5
351,2016,1,0,1,3,50,54,30333,11500,11500,12100,2,2,0
351,2016,2,0,2,3,19,-1,-1,0,600,12100,2,2,0
352,2016,1,1,3,0,56,-1,-1,0,18000,44000,3,3,1
352,2016,2,0,1,3,55,40,80313,15000,15000,44000,3,3,0
352,2016,3,1,1,3,25,40,41312,11000,11000,44000,3,3,0
353,2016,1,0,2,3,30,-1,-1,0,30000,30000,1,1,0
354,2016,1,1,1,3,64,30,10332,52000,58000,58000,1,1,0
355,2016,1,1,1,3,31,41,20331,15000,-9,0,3,2,0
355,2016,2,1,3,0,29,-1,-1,0,100,0,3,2,4
356,2016,2,0,1,3,72,35,10313,10000,10000,20000,2,2,0
358,2016,1,0,3,0,69,-1,-1,0,4800,14600,2,2,1
358,2016,2,0,1,2,68,55,30113,5000,9800,14600,2,2,0
359,2016,1,0,3,0,71,-1,-1,0,4800,4800,1,1,1
360,2016,1,0,3,0,80,-1,-1,0,4500,4500,1,1,1
361,2016,1,1,1,3,55,40,40313,8000,8000,8000,2,2,0
361,2016,2,0,3,0,20,-1,-1,0,0,8000,2,2,1
362,2016,1,0,1,3,32,40,10333,18000,18000,18000,5,2,0
362,2016,2,0,3,0,32,-1,-1,0,0,18000,5,2,4
362,2016,3,0,4,0,7,-1,-1,0,0,18000,5,2,3
362,2016,4,0,4,0,5,-1,-1,0,0,18000,5,2,5
362,2016,5,0,4,0,2,-1,-1,0,0,18000,5,2,5
363,2016,1,1,1,3,64,30,41312,18000,24000,33000,2,2,0
363,2016,2,0,1,2,39,35,34123,9000,9000,33000,2,2,0
364,2016,1,0,3,0,80,-1,-1,0,10000,17000,2,2,1
364,2016,2,0,1,3,48,48,58313,7000,7000,17000,2,2,0
365,2016,1,1,1,3,58,40,70331,100000,114700,155700,5,5,0
365,2016,2,1,3,0,53,-1,-1,0,0,155700,5,5,4
365,2016,3,1,1,3,29,70,11331,24000,24000,155700,5,5,0
365,2016,4,1,1,3,27,45,40331,17000,17000,155700,5,5,0
365,2016,5,0,3,0,23,-1,-1,0,0,155700,5,5,3
366,2016,1,0,1,3,36,40,10333,-9,-9,0,3,3,0
367,2016,2,1,3,0,27,-1,-1,0,4700,4700,2,2,3
368,2016,1,1,1,3,74,30,41312,10000,55000,55000,1,1,0
369,2016,1,1,1,2,46,30,30133,50000,50000,65000,3,2,0
369,2016,2,1,1,3,40,30,10312,15000,15000,65000,3,2,0
369,2016,3,0,4,0,2,-1,-1,0,0,65000,3,2,5
370,2016,1,0,1,3,38,35,10333,-9,-9,0,3,3,0
370,2016,2,0,3,0,14,-1,-1,0,0,0,3,3,3
370,2016,3,0,3,0,84,-1,-1,0,11000,0,3,3,1
371,2016,1,1,1,3,30,40,20333,-9,-9,0,2,2,0
346,2016,2,1,1,3,41,32,20202,35000,35000,0,2,2,0
372,2016,1,0,1,3,56,0,56313,14000,14000,14000,1,1,0
374,2016,1,0,1,3,43,30,41312,5000,7500,7500,3,2,0
374,2016,2,0,3,0,11,-1,-1,0,0,7500,3,2,3
374,2016,3,0,4,0,9,-1,-1,0,0,7500,3,2,3
375,2016,1,0,3,0,76,-1,-1,0,4500,11500,2,2,1
375,2016,2,0,3,0,71,-1,-1,0,7000,11500,2,2,1
376,2016,1,0,1,3,31,54,53313,8000,8000,14600,4,2,0
376,2016,2,0,1,3,29,54,53314,6600,6600,14600,4,2,0
376,2016,3,0,4,0,2,-1,-1,0,0,14600,4,2,5
377,2016,3,0,3,0,15,-1,-1,0,0,0,5,5,3
377,2016,4,0,3,0,13,-1,-1,0,0,0,5,5,3
377,2016,5,0,3,0,10,-1,-1,0,0,0,5,5,3
378,2016,1,1,1,3,62,40,10312,25000,31000,48000,2,2,0
378,2016,2,0,3,0,72,-1,-1,0,17000,48000,2,2,1
379,2016,1,1,1,3,59,0,56314,7000,7000,11980,2,2,0
355,2016,3,0,4,0,1,-1,-1,0,0,0,3,2,5
380,2016,1,1,3,0,83,-1,-1,0,20000,25000,2,2,1
380,2016,2,1,3,0,76,-1,-1,0,5000,25000,2,2,1
381,2016,1,1,1,3,44,30,99999,-9,-9,0,2,2,0
381,2016,2,1,1,3,43,999,99999,-9,-9,0,2,2,0
382,2016,1,0,2,3,33,-1,-1,0,5000,5000,2,2,0
382,2016,2,0,2,3,31,-1,-1,0,0,5000,2,2,0
383,2016,1,1,1,3,64,36,80332,30000,30000,30000,1,1,0
384,2016,1,1,1,3,43,9,41312,6000,16600,24600,4,4,0
384,2016,2,1,1,3,44,9,41312,7000,7000,24600,4,4,0
384,2016,3,0,1,3,21,6,41312,1000,1000,24600,4,4,0
384,2016,4,0,3,0,10,-1,-1,0,0,24600,4,4,3
385,2016,1,1,3,0,75,-1,-1,0,-9,0,2,2,1
386,2016,3,0,3,0,13,-1,-1,0,0,0,3,3,3
387,2016,1,0,3,0,76,-1,-1,0,6100,10900,2,2,1
387,2016,2,0,3,0,72,-1,-1,0,4800,10900,2,2,1
388,2016,1,0,3,0,47,-1,-1,0,1600,8600,3,3,1
388,2016,2,0,3,0,17,-1,-1,0,0,8600,3,3,3
390,2016,1,0,3,0,57,-1,-1,0,6500,14500,2,2,1
390,2016,2,0,1,3,22,35,20332,8000,8000,14500,2,2,0
391,2016,1,0,3,0,79,-1,-1,0,-9,0,1,1,1
392,2016,1,0,1,3,27,50,82313,10000,10000,10000,1,1,0
393,2016,1,0,1,3,62,40,92332,36000,36000,40100,2,2,0
393,2016,2,0,3,0,62,-1,-1,0,4100,40100,2,2,1
394,2016,1,1,3,0,87,-1,-1,0,4959,4959,1,1,1
395,2016,1,1,1,3,38,30,40312,14000,14000,15000,2,2,0
395,2016,2,0,3,0,20,-1,-1,0,1000,15000,2,2,3
396,2016,1,0,3,0,93,-1,-1,0,9000,9000,1,1,1
397,2016,1,0,3,0,76,-1,-1,0,7000,7000,1,1,1
356,2016,1,0,1,3,51,30,30314,10000,10000,20000,2,2,0
371,2016,2,1,1,2,30,40,72131,-9,-9,0,2,2,0
398,2016,1,1,1,2,33,999,50111,-9,-9,0,1,1,0
399,2016,1,0,1,2,42,24,92132,22000,22000,22000,3,3,0
399,2016,2,0,3,0,11,-1,-1,0,0,22000,3,3,3
399,2016,3,0,3,0,14,-1,-1,0,0,22000,3,3,3
400,2016,1,0,1,3,44,40,72312,7000,10500,14250,4,4,0
400,2016,2,0,1,3,42,9,52312,750,750,14250,4,4,0
400,2016,3,0,3,0,16,-1,-1,0,1500,14250,4,4,3
402,2016,1,1,1,3,38,30,40313,5000,5000,13000,2,2,0
402,2016,2,0,1,3,43,60,55314,8000,8000,13000,2,2,0
403,2016,1,0,1,2,45,48,33114,4500,4500,15670,4,4,0
403,2016,2,0,1,2,44,36,33114,4500,5170,15670,4,4,0
403,2016,3,0,1,3,20,54,30314,6000,6000,15670,4,4,0
403,2016,4,0,3,0,12,-1,-1,0,0,15670,4,4,3
404,2016,1,0,1,3,67,45,36323,12400,16700,16700,1,1,0
405,2016,1,0,3,0,73,-1,-1,0,-9,0,3,3,1
379,2016,2,0,3,0,71,-1,-1,0,4980,11980,2,2,1
406,2016,1,0,1,3,56,66,53314,10000,10000,20000,3,3,0
406,2016,2,1,3,0,52,-1,-1,0,0,20000,3,3,4
406,2016,3,0,1,3,28,66,53314,10000,10000,20000,3,3,0
407,2016,1,1,3,0,68,-1,-1,0,-9,0,3,3,1
407,2016,2,1,3,0,64,-1,-1,0,-9,0,3,3,1
407,2016,3,1,1,3,28,40,10333,-9,-9,0,3,3,0
408,2016,1,0,1,3,53,35,10333,12000,12000,24000,2,2,0
408,2016,2,1,1,3,50,40,41312,12000,12000,24000,2,2,0
409,2016,1,1,1,3,40,25,40322,17000,23000,23000,2,2,0
409,2016,2,0,3,0,13,-1,-1,0,0,23000,2,2,4
410,2016,1,0,3,0,74,-1,-1,0,8000,8000,1,1,1
411,2016,2,0,1,3,40,30,33314,8000,8000,18000,2,2,0
412,2016,1,0,2,3,47,-1,-1,0,0,0,1,1,0
413,2016,2,1,1,3,39,35,41312,-9,-9,0,6,3,0
413,2016,3,0,3,0,18,-1,-1,0,0,0,6,3,3
413,2016,4,0,3,0,16,-1,-1,0,0,0,6,3,3
388,2016,3,0,1,3,40,84,34323,7000,7000,8600,3,3,0
414,2016,1,0,1,3,40,12,80323,3000,4200,8950,6,4,0
414,2016,2,0,3,0,25,-1,-1,0,750,8950,6,4,4
414,2016,3,0,3,0,16,-1,-1,0,0,8950,6,4,3
414,2016,4,0,4,0,8,-1,-1,0,0,8950,6,4,3
414,2016,5,0,1,3,24,20,72314,4000,4000,8950,6,4,0
414,2016,6,0,4,0,2,-1,-1,0,0,8950,6,4,5
415,2016,1,0,1,3,53,54,30313,-9,-9,0,3,3,0
415,2016,2,0,1,3,59,7,55314,1400,2200,0,3,3,0
415,2016,3,0,2,3,18,-1,-1,0,0,0,3,3,0
416,2016,1,0,1,3,59,45,20333,-9,-9,0,3,3,0
416,2016,2,1,3,0,53,-1,-1,0,4500,0,3,3,4
416,2016,3,0,1,3,30,20,80313,3900,3900,0,3,3,0
418,2016,1,1,1,3,73,40,20311,-9,-9,0,4,4,0
419,2016,1,1,1,3,59,45,11331,-9,-9,0,3,3,0
419,2016,2,1,3,0,55,-1,-1,0,0,0,3,3,4
419,2016,3,0,1,4,24,999,10333,0,0,0,3,3,0
420,2016,1,0,3,0,38,-1,-1,0,0,0,3,3,4
420,2016,2,0,1,2,50,24,58113,-9,-9,0,3,3,0
420,2016,3,0,3,0,10,-1,-1,0,0,0,3,3,3
421,2016,1,0,3,0,79,-1,-1,0,8900,8900,1,1,1
422,2016,1,0,3,0,76,-1,-1,0,10000,10000,1,1,1
423,2016,2,1,1,3,58,40,11331,26000,26000,38000,2,2,0
423,2016,3,1,1,3,30,20,41332,6000,12000,38000,2,2,0
424,2016,1,0,1,1,64,40,05002,30000,30000,30000,1,1,0
425,2016,1,0,3,0,92,-1,-1,0,9350,9350,1,1,1
426,2016,1,0,1,3,29,45,30333,21000,21000,28000,2,2,0
426,2016,2,0,1,3,22,25,30333,7000,7000,28000,2,2,0
427,2016,1,1,1,3,37,28,46311,15000,-9,0,1,1,0
428,2016,1,0,3,0,77,-1,-1,0,10000,10000,1,1,1
429,2016,1,1,1,3,44,34,10313,16000,20500,37500,4,3,0
405,2016,2,0,1,3,63,36,10333,-9,-9,0,3,3,0
405,2016,3,0,2,3,27,-1,-1,0,0,0,3,3,0
430,2016,1,1,1,3,64,15,45332,5000,9800,9800,1,1,0
431,2016,1,0,1,3,55,40,36314,15000,15000,31800,7,6,0
431,2016,2,0,1,3,49,9,30313,1000,1000,31800,7,6,0
431,2016,3,0,3,0,23,-1,-1,0,0,31800,7,6,4
431,2016,4,0,3,0,32,-1,-1,0,1800,31800,7,6,1
431,2016,5,0,1,3,29,0,40312,7000,7000,31800,7,6,0
432,2016,1,0,3,0,66,-1,-1,0,217000,221900,2,2,1
432,2016,2,0,3,0,67,-1,-1,0,4900,221900,2,2,1
413,2016,5,0,4,0,9,-1,-1,0,0,0,6,3,3
413,2016,6,0,4,0,5,-1,-1,0,0,0,6,3,5
413,2016,7,0,4,0,2,-1,-1,0,0,0,6,3,5
434,2016,1,0,3,0,63,-1,-1,0,0,0,5,5,6
434,2016,2,0,3,0,52,-1,-1,0,-9,0,5,5,1
434,2016,3,0,1,2,31,84,82132,-9,-9,0,5,5,0
434,2016,4,0,3,0,28,-1,-1,0,0,0,5,5,1
434,2016,5,0,3,0,25,-1,-1,0,0,0,5,5,1
343,2016,2,1,1,3,50,40,06001,-9,-9,0,4,4,0
343,2016,3,0,3,0,15,-1,-1,0,0,0,4,4,3
343,2016,4,0,3,0,20,-1,-1,0,0,0,4,4,3
436,2016,1,0,1,3,45,24,56314,1000,7000,7000,2,2,0
436,2016,2,0,3,0,20,-1,-1,0,0,7000,2,2,4
418,2016,2,1,3,0,69,-1,-1,0,0,0,4,4,4
418,2016,3,1,1,3,30,40,11311,-9,-9,0,4,4,0
418,2016,4,1,1,3,27,45,10331,-9,-9,0,4,4,0
437,2016,1,1,1,3,34,64,53313,0,0,0,1,1,0
438,2016,1,1,1,3,54,35,10333,11000,14200,21940,3,3,0
438,2016,2,0,1,3,22,25,30313,4700,4700,21940,3,3,0
438,2016,3,0,1,2,20,27,72113,2400,3040,21940,3,3,0
440,2016,1,1,1,3,34,15,41312,8000,8000,20000,3,2,0
440,2016,2,0,1,3,39,40,34323,12000,12000,20000,3,2,0
440,2016,3,0,4,0,2,-1,-1,0,0,20000,3,2,5
441,2016,1,0,1,3,54,48,56313,9800,9800,18800,5,4,0
441,2016,2,0,3,0,61,-1,-1,0,0,18800,5,4,4
441,2016,3,0,1,3,26,40,32314,9000,9000,18800,5,4,0
441,2016,4,0,2,3,20,-1,-1,0,0,18800,5,4,0
429,2016,2,0,1,3,42,0,10333,12000,17000,37500,4,3,0
429,2016,3,0,3,0,12,-1,-1,0,0,37500,4,3,3
429,2016,4,0,4,0,7,-1,-1,0,0,37500,4,3,3
442,2016,1,0,3,0,77,-1,-1,0,-9,0,2,2,1
442,2016,2,0,3,0,76,-1,-1,0,4800,0,2,2,1
443,2016,1,0,1,3,34,35,72312,30000,30000,35000,4,3,0
443,2016,2,0,1,3,31,30,10313,5000,5000,35000,4,3,0
443,2016,3,0,3,0,12,-1,-1,0,0,35000,4,3,3
446,2016,1,1,1,2,43,52,10132,14000,14000,14000,1,1,0
447,2016,1,0,1,3,37,60,47314,9000,9000,39000,5,3,0
447,2016,2,0,3,0,42,-1,-1,0,0,39000,5,3,4
447,2016,3,0,1,3,55,20,10313,30000,30000,39000,5,3,0
447,2016,4,0,4,0,3,-1,-1,0,0,39000,5,3,5
447,2016,5,0,4,0,1,-1,-1,0,0,39000,5,3,5
448,2016,1,0,1,3,41,16,55314,2100,4400,9400,4,4,0
448,2016,2,0,1,3,24,48,30313,5000,5000,9400,4,4,0
448,2016,3,0,3,0,15,-1,-1,0,0,9400,4,4,3
448,2016,4,0,3,0,10,-1,-1,0,0,9400,4,4,3
449,2016,1,1,1,3,50,168,34313,30000,30000,30000,4,3,0
449,2016,2,1,2,0,43,-1,-1,0,0,30000,4,3,0
449,2016,3,0,3,0,11,-1,-1,0,0,30000,4,3,3
449,2016,4,0,4,0,6,-1,-1,0,0,30000,4,3,3
451,2016,1,1,1,3,48,40,11312,25000,25000,45000,4,3,0
451,2016,2,1,1,3,47,40,10333,20000,20000,45000,4,3,0
451,2016,3,0,3,0,10,-1,-1,0,0,45000,4,3,3
451,2016,4,0,4,0,6,-1,-1,0,0,45000,4,3,3
452,2016,1,1,1,3,39,30,46312,18000,-9,0,3,2,0
452,2016,2,1,1,2,41,40,20131,0,120000,0,3,2,0
452,2016,3,0,4,0,4,-1,-1,0,0,0,3,2,5
453,2016,1,0,3,0,74,-1,-1,0,5500,20500,2,2,1
453,2016,2,0,3,0,76,-1,-1,0,15000,20500,2,2,1
454,2016,1,0,3,0,74,-1,-1,0,4950,4950,1,1,1
455,2016,1,1,1,2,31,35,53112,6000,36000,36000,1,1,0
456,2016,1,0,3,0,80,-1,-1,0,6000,6000,1,1,1
457,2016,1,0,2,3,42,-1,-1,0,300400,313400,5,5,0
457,2016,2,0,1,3,31,62,30202,13000,13000,313400,5,5,0
457,2016,3,0,2,0,17,-1,-1,0,0,313400,5,5,0
457,2016,4,0,2,3,23,-1,-1,0,0,313400,5,5,0
457,2016,5,0,2,0,19,-1,-1,0,0,313400,5,5,0
458,2016,1,1,1,2,68,4,80113,600,-9,0,1,1,0
459,2016,1,0,3,0,77,-1,-1,0,-9,0,1,1,1
460,2016,1,0,1,3,39,40,81331,-9,-9,0,1,1,0
441,2016,5,0,4,0,2,-1,-1,0,0,18800,5,4,5
464,2016,1,1,3,0,65,-1,-1,0,12000,12000,1,1,1
466,2016,1,0,3,0,78,-1,-1,0,4800,9600,2,2,1
466,2016,2,0,3,0,78,-1,-1,0,4800,9600,2,2,1
467,2016,1,0,3,0,73,-1,-1,0,5000,10000,2,2,1
467,2016,2,0,3,0,69,-1,-1,0,5000,10000,2,2,1
468,2016,1,0,1,3,47,20,41332,12000,12000,12000,1,1,0
469,2016,1,0,1,3,24,48,20313,12000,12000,12000,1,1,0
470,2016,1,0,1,2,71,36,72132,20000,25100,25100,1,1,0
471,2016,1,0,1,3,28,44,56313,9500,9500,19500,2,2,0
471,2016,2,0,1,3,25,44,10312,10000,10000,19500,2,2,0
385,2016,2,0,3,0,71,-1,-1,0,-9,0,2,2,1
472,2016,1,1,3,0,62,-1,-1,0,9600,9600,1,1,1
474,2016,1,0,1,2,65,56,10112,20000,23900,23900,2,2,0
474,2016,2,0,3,0,63,-1,-1,0,0,23900,2,2,4
475,2016,1,0,3,0,73,-1,-1,0,9200,14400,2,2,1
475,2016,2,0,3,0,69,-1,-1,0,5200,14400,2,2,1
476,2016,1,0,1,3,36,45,72313,12000,12000,12000,2,2,0
476,2016,2,0,3,0,14,-1,-1,0,0,12000,2,2,3
477,2016,1,0,1,2,46,25,40112,10000,13000,13000,1,1,0
479,2016,1,1,1,3,35,48,92332,12000,15000,18200,4,2,0
479,2016,2,1,1,2,32,56,30133,2000,3200,18200,4,2,0
479,2016,3,0,4,0,9,-1,-1,0,0,18200,4,2,3
479,2016,4,0,4,0,3,-1,-1,0,0,18200,4,2,5
480,2016,1,1,1,3,34,35,10312,21000,21000,21000,1,1,0
481,2016,1,0,3,0,52,-1,-1,0,0,0,3,3,4
481,2016,2,0,3,0,78,-1,-1,0,10500,0,3,3,1
481,2016,3,0,1,3,49,24,10333,-9,-9,0,3,3,0
483,2016,1,0,3,0,80,-1,-1,0,4900,9800,2,2,1
483,2016,2,0,3,0,81,-1,-1,0,4900,9800,2,2,1
484,2016,1,1,1,3,48,20,30333,10000,20000,20000,3,2,0
484,2016,2,1,1,1,55,66,05002,0,0,20000,3,2,0
484,2016,3,0,4,0,8,-1,-1,0,0,20000,3,2,3
485,2016,1,1,3,0,66,-1,-1,0,-9,0,2,2,1
485,2016,2,0,1,3,45,40,10314,-9,-9,0,2,2,0
344,2016,1,1,1,2,32,44,53113,0,0,0,2,2,0
400,2016,4,0,3,0,16,-1,-1,0,1500,14250,4,4,3
486,2016,1,0,1,3,57,60,30314,12000,12000,17400,2,2,0
486,2016,2,0,1,3,49,9,55314,2400,5400,17400,2,2,0
487,2016,1,1,1,1,52,48,05002,-9,-9,0,3,2,0
487,2016,2,1,1,3,38,25,41312,9000,13500,0,3,2,0
487,2016,3,0,4,0,4,-1,-1,0,0,0,3,2,5
488,2016,1,0,3,0,67,-1,-1,0,-9,0,2,2,1
488,2016,2,0,3,0,63,-1,-1,0,4200,0,2,2,1
489,2016,1,1,1,3,45,53,03001,27000,27000,31900,2,2,0
490,2016,1,1,1,3,37,32,10312,32000,32000,72000,2,2,0
490,2016,2,1,1,2,49,20,11131,30000,40000,72000,2,2,0
491,2016,1,0,1,2,41,55,30133,50000,50000,70000,2,2,0
491,2016,2,1,1,3,41,40,80332,20000,20000,70000,2,2,0
492,2016,1,0,1,3,41,62,92313,-9,-9,0,2,2,0
492,2016,2,0,1,3,36,12,56314,6000,6000,0,2,2,0
493,2016,1,0,1,3,52,35,10332,-9,-9,0,3,3,0
493,2016,2,0,1,3,52,35,10332,-9,-9,0,3,3,0
493,2016,3,0,3,0,17,-1,-1,0,0,0,3,3,3
494,2016,1,0,3,0,76,-1,-1,0,5000,10000,2,2,1
494,2016,2,0,3,0,75,-1,-1,0,5000,10000,2,2,1
495,2016,1,1,1,3,53,32,20312,16000,18500,28000,2,2,0
495,2016,2,1,1,3,30,20,41312,9500,9500,28000,2,2,0
496,2016,1,0,1,3,49,32,91312,20000,20000,27000,4,3,0
496,2016,2,1,1,2,47,16,11131,7000,7000,27000,4,3,0
496,2016,3,0,3,0,16,-1,-1,0,0,27000,4,3,3
497,2016,2,0,1,2,52,45,57113,10000,10000,20000,2,2,0
498,2016,1,0,1,3,60,40,49313,20000,20000,20000,1,1,0
499,2016,1,0,1,3,44,8,55314,1600,4400,4400,3,2,0
499,2016,2,0,3,0,12,-1,-1,0,0,4400,3,2,3
499,2016,3,0,4,0,9,-1,-1,0,0,4400,3,2,3
500,2016,1,1,1,3,33,25,40311,0,20000,20000,1,1,0
501,2016,1,0,3,0,81,-1,-1,0,9600,9600,1,1,1
502,2016,1,0,1,3,32,48,32314,11000,11000,18500,3,3,0
502,2016,2,0,1,3,31,30,42313,7500,7500,18500,3,3,0
502,2016,3,0,3,0,10,-1,-1,0,0,18500,3,3,3
503,2016,1,1,1,1,48,50,05001,70000,70000,70000,1,1,0
504,2016,1,0,3,0,74,-1,-1,0,22000,27300,2,2,1
504,2016,2,1,3,0,74,-1,-1,0,5300,27300,2,2,1
505,2016,1,1,1,1,51,40,05001,20000,20000,34000,4,4,0
505,2016,2,1,1,2,48,18,10133,8000,14000,34000,4,4,0
505,2016,3,0,3,0,14,-1,-1,0,0,34000,4,4,3
505,2016,4,0,3,0,18,-1,-1,0,0,34000,4,4,3
506,2016,1,1,3,0,72,-1,-1,0,14000,14000,1,1,1
507,2016,2,0,1,3,52,40,10203,20000,20000,54000,4,4,0
507,2016,3,0,3,0,17,-1,-1,0,0,54000,4,4,3
507,2016,4,0,3,0,21,-1,-1,0,0,54000,4,4,3
509,2016,1,0,1,3,54,61,56313,20000,20000,20000,2,2,0
509,2016,2,0,2,3,21,-1,-1,0,0,20000,2,2,0
510,2016,1,0,1,2,51,54,90112,-9,-9,0,4,4,0
489,2016,2,0,3,0,80,-1,-1,0,4900,31900,2,2,1
511,2016,1,1,3,0,75,-1,-1,0,40000,40000,1,1,1
512,2016,1,0,3,0,80,-1,-1,0,8000,12800,2,2,1
512,2016,2,0,3,0,86,-1,-1,0,4800,12800,2,2,1
513,2016,1,0,1,2,28,54,34123,-9,-9,0,1,1,0
514,2016,1,0,1,2,35,32,34123,12000,12000,32000,3,2,0
514,2016,2,0,1,3,34,32,20333,20000,20000,32000,3,2,0
514,2016,3,0,4,0,1,-1,-1,0,0,32000,3,2,5
515,2016,2,0,1,3,37,36,20333,8500,8500,8500,2,1,0
431,2016,6,0,1,3,24,40,10313,7000,7000,31800,7,6,0
431,2016,7,0,4,0,1,-1,-1,0,0,31800,7,6,5
516,2016,1,1,1,3,49,20,41203,16000,16000,116000,5,5,0
516,2016,2,1,1,3,51,50,11331,100000,100000,116000,5,5,0
516,2016,3,0,3,0,22,-1,-1,0,0,116000,5,5,3
516,2016,4,0,3,0,19,-1,-1,0,0,116000,5,5,3
516,2016,5,0,3,0,13,-1,-1,0,0,116000,5,5,3
517,2016,1,0,1,3,35,40,50331,-9,-9,0,2,2,0
496,2016,4,0,4,0,7,-1,-1,0,0,27000,4,3,3
519,2016,1,0,1,3,52,40,34323,20000,20000,40000,4,4,0
519,2016,2,0,3,0,51,-1,-1,0,0,40000,4,4,4
519,2016,3,0,1,3,23,24,10333,11000,11000,40000,4,4,0
519,2016,4,0,1,3,21,32,10333,9000,9000,40000,4,4,0
520,2016,1,0,1,2,55,3,72113,2000,2000,30000,4,4,0
520,2016,2,0,1,3,48,45,80314,15000,15000,30000,4,4,0
520,2016,4,0,1,3,25,20,10332,4000,4000,30000,4,4,0
520,2016,5,0,1,3,23,45,80313,9000,9000,30000,4,4,0
521,2016,1,1,3,0,68,-1,-1,0,-9,0,1,1,1
522,2016,1,1,1,3,28,45,20202,14000,14000,14000,1,1,0
523,2016,1,0,1,3,53,0,99999,2400,2800,2800,1,1,0
524,2016,1,0,3,0,60,-1,-1,0,3800,14800,4,3,1
524,2016,2,1,1,3,37,48,40312,11000,11000,14800,4,3,0
525,2016,1,1,1,3,59,32,40311,25000,35000,50000,2,2,0
525,2016,2,1,1,3,57,32,42331,15000,15000,50000,2,2,0
526,2016,1,0,3,0,65,-1,-1,0,4800,4800,1,1,1
527,2016,1,0,1,1,76,32,06001,10000,15500,15500,1,1,0
528,2016,1,0,3,0,74,-1,-1,0,4800,37800,2,2,1
528,2016,2,0,3,0,77,-1,-1,0,33000,37800,2,2,1
529,2016,1,0,1,1,51,50,06001,-9,-9,0,5,4,0
530,2016,1,0,3,0,82,-1,-1,0,6900,6900,1,1,1
531,2016,1,1,1,2,58,25,40111,15000,15000,15000,1,1,0
533,2016,1,0,1,2,59,60,30113,15000,15000,15000,1,1,0
534,2016,1,0,3,0,76,-1,-1,0,7300,7300,1,1,1
535,2016,1,0,1,3,42,9,32323,-9,-9,0,1,1,0
537,2016,1,0,1,3,66,4,40312,850,6450,6450,1,1,0
510,2016,2,0,1,2,54,35,20132,-9,-9,0,4,4,0
510,2016,3,0,2,3,18,-1,-1,0,0,0,4,4,0
510,2016,4,0,1,3,22,30,10333,17000,20000,0,4,4,0
538,2016,1,0,2,0,70,-1,-1,0,3800,3800,3,3,0
538,2016,2,0,2,3,41,-1,-1,0,0,3800,3,3,0
538,2016,3,0,3,0,18,-1,-1,0,0,3800,3,3,1
539,2016,1,0,3,0,29,-1,-1,0,-9,0,3,1,4
539,2016,2,0,4,0,3,-1,-1,0,0,0,3,1,5
540,2016,1,0,1,3,71,12,30314,-9,-9,0,2,2,0
540,2016,2,0,2,3,38,-1,-1,0,0,0,2,2,0
541,2016,1,0,1,3,32,48,34323,13000,13000,18600,2,2,0
541,2016,2,0,1,3,23,24,53314,5400,5600,18600,2,2,0
542,2016,1,0,1,3,56,45,80203,-9,-9,0,4,4,0
542,2016,2,0,3,0,20,-1,-1,0,0,0,4,4,1
542,2016,3,0,3,0,16,-1,-1,0,0,0,4,4,3
542,2016,4,0,1,3,51,45,10333,-9,-9,0,4,4,0
543,2016,1,0,1,2,42,60,30113,0,0,0,3,2,0
517,2016,2,0,1,3,36,40,40312,10000,10000,0,2,2,0
544,2016,1,1,3,0,73,-1,-1,0,7000,7000,1,1,1
545,2016,1,0,3,0,92,-1,-1,0,4200,8400,2,2,1
545,2016,2,0,3,0,86,-1,-1,0,4200,8400,2,2,1
546,2016,1,0,1,1,40,56,05002,-9,-9,0,6,6,0
546,2016,2,0,1,1,47,49,05002,-9,-9,0,6,6,0
546,2016,3,0,3,0,20,-1,-1,0,0,0,6,6,3
546,2016,4,0,3,0,16,-1,-1,0,0,0,6,6,3
546,2016,5,0,3,0,48,-1,-1,0,0,0,6,6,6
546,2016,6,0,3,0,77,-1,-1,0,0,0,6,6,6
548,2016,1,0,1,3,60,0,41314,11000,11000,14500,3,3,0
548,2016,2,0,3,0,21,-1,-1,0,0,14500,3,3,3
548,2016,3,0,1,3,20,36,99999,3500,3500,14500,3,3,0
549,2016,1,0,2,3,42,-1,-1,0,150000,151400,4,2,0
549,2016,2,0,3,0,43,-1,-1,0,1400,151400,4,2,4
549,2016,3,0,4,0,1,-1,-1,0,0,151400,4,2,5
524,2016,3,0,4,0,9,-1,-1,0,0,14800,4,3,3
524,2016,4,0,3,0,12,-1,-1,0,0,14800,4,3,3
550,2016,1,1,1,3,50,50,20332,20000,20000,20000,1,1,0
553,2016,1,1,1,1,39,72,05001,-9,-9,0,5,2,0
553,2016,2,1,1,2,39,20,80132,7000,14000,0,5,2,0
553,2016,3,0,4,0,5,-1,-1,0,0,0,5,2,5
553,2016,4,0,4,0,3,-1,-1,0,0,0,5,2,5
553,2016,5,0,4,0,3,-1,-1,0,0,0,5,2,5
554,2016,1,0,1,3,43,54,34323,8500,8500,18000,4,4,0
554,2016,2,0,1,3,44,35,46313,9500,9500,18000,4,4,0
554,2016,3,0,3,0,17,-1,-1,0,0,18000,4,4,3
554,2016,4,0,3,0,11,-1,-1,0,0,18000,4,4,3
556,2016,1,0,1,2,56,40,61113,8000,30000,30000,2,2,0
556,2016,2,1,3,0,64,-1,-1,0,0,30000,2,2,4
558,2016,1,0,1,3,61,24,57314,6400,10650,10650,1,1,0
559,2016,1,0,1,2,41,999,34123,-9,-9,0,4,3,0
559,2016,2,0,3,0,41,-1,-1,0,0,0,4,3,4
559,2016,3,0,3,0,10,-1,-1,0,0,0,4,3,3
559,2016,4,0,4,0,6,-1,-1,0,0,0,4,3,3
560,2016,1,0,1,3,37,48,32314,13000,13000,14400,5,4,0
560,2016,2,0,1,3,37,4,55314,1400,1400,14400,5,4,0
560,2016,3,0,3,0,16,-1,-1,0,0,14400,5,4,3
560,2016,4,0,3,0,12,-1,-1,0,0,14400,5,4,3
560,2016,5,0,4,0,8,-1,-1,0,0,14400,5,4,3
561,2016,1,0,1,2,46,3,40112,-9,-9,0,2,2,0
543,2016,2,1,1,2,42,40,30113,-9,-9,0,3,2,0
543,2016,3,0,4,0,1,-1,-1,0,0,0,3,2,5
562,2016,1,0,1,2,53,50,33114,10000,14970,14970,1,1,0
563,2016,1,0,1,3,75,4,45312,500,17500,17500,2,2,0
563,2016,2,0,3,0,47,-1,-1,0,0,17500,2,2,6
564,2016,1,0,1,1,63,40,06001,40000,40000,48950,4,4,0
564,2016,2,0,3,0,55,-1,-1,0,0,48950,4,4,4
564,2016,3,0,3,0,83,-1,-1,0,4950,48950,4,4,1
565,2016,1,0,1,3,52,55,92312,10000,10000,24000,4,4,0
565,2016,2,0,1,3,42,30,20313,8000,8000,24000,4,4,0
565,2016,3,0,1,3,18,32,30313,6000,6000,24000,4,4,0
565,2016,4,0,3,0,11,-1,-1,0,0,24000,4,4,3
549,2016,4,0,4,0,4,-1,-1,0,0,151400,4,2,5
566,2016,1,0,1,3,58,45,56314,7500,7500,23900,5,5,0
566,2016,2,0,2,2,26,-1,-1,0,1500,23900,5,5,0
566,2016,3,0,2,3,18,-1,-1,0,0,23900,5,5,0
566,2016,4,0,1,2,67,40,58113,2500,2500,23900,5,5,0
566,2016,5,0,1,3,64,30,55314,7500,12400,23900,5,5,0
567,2016,1,1,1,3,37,45,31313,11000,11000,11000,1,1,0
568,2016,1,0,1,2,40,38,72113,-9,-9,0,5,3,0
568,2016,2,0,2,0,40,-1,-1,0,0,0,5,3,0
366,2016,2,0,3,0,18,-1,-1,0,0,0,3,3,3
366,2016,3,0,3,0,15,-1,-1,0,0,0,3,3,3
569,2016,1,1,1,3,39,45,99999,-9,-9,0,3,2,0
569,2016,2,1,3,0,37,-1,-1,0,0,0,3,2,4
569,2016,3,0,4,0,1,-1,-1,0,0,0,3,2,5
570,2016,1,0,1,2,44,119,30133,0,0,0,1,1,0
572,2016,1,0,1,3,63,0,47313,10500,15200,15200,2,2,0
572,2016,2,0,3,0,62,-1,-1,0,0,15200,2,2,4
573,2016,1,0,1,3,66,30,10332,-9,-9,0,2,2,0
573,2016,2,0,1,3,64,25,10332,-9,-9,0,2,2,0
574,2016,1,0,3,0,66,-1,-1,0,15000,23000,2,2,1
574,2016,2,0,3,0,65,-1,-1,0,8000,23000,2,2,1
575,2016,1,0,3,0,67,-1,-1,0,4400,14800,2,2,1
575,2016,2,0,3,0,95,-1,-1,0,10400,14800,2,2,1
576,2016,1,1,1,3,52,48,40311,-9,-9,0,4,4,0
576,2016,2,1,1,3,52,8,40312,-9,-9,0,4,4,0
576,2016,3,0,3,0,14,-1,-1,0,0,0,4,4,3
576,2016,4,0,3,0,12,-1,-1,0,0,0,4,4,3
579,2016,1,1,1,3,51,40,41332,32000,32000,60000,4,4,0
579,2016,2,0,1,3,50,40,10333,19000,19000,60000,4,4,0
580,2016,1,1,1,3,29,45,41312,10000,15000,15000,2,1,0
580,2016,2,0,4,0,6,-1,-1,0,0,15000,2,1,3
581,2016,1,1,1,3,31,30,40311,17000,22000,22000,1,1,0
582,2016,1,0,1,3,58,30,30333,-9,-9,0,1,1,0
584,2016,1,1,1,3,32,45,10333,50000,54500,76500,3,2,0
584,2016,2,1,1,3,32,30,11331,22000,22000,76500,3,2,0
584,2016,3,0,4,0,1,-1,-1,0,0,76500,3,2,5
585,2016,1,0,1,3,35,54,10333,-9,-9,0,5,3,0
585,2016,2,0,1,3,42,35,20313,-9,-9,0,5,3,0
585,2016,3,0,3,0,14,-1,-1,0,0,0,5,3,3
585,2016,4,0,4,0,5,-1,-1,0,0,0,5,3,5
585,2016,5,0,4,0,3,-1,-1,0,0,0,5,3,5
586,2016,1,0,1,2,63,84,34123,-9,-9,0,4,4,0
586,2016,2,1,1,2,58,35,40112,-9,-9,0,4,4,0
586,2016,3,1,1,3,27,40,99999,-9,-9,0,4,4,0
586,2016,4,1,1,3,34,40,80201,-9,-9,0,4,4,0
587,2016,1,0,3,0,74,-1,-1,0,8000,12800,2,2,1
587,2016,2,0,3,0,66,-1,-1,0,4800,12800,2,2,1
588,2016,1,0,3,0,77,-1,-1,0,-9,0,5,3,1
588,2016,2,0,2,3,21,-1,-1,0,5500,0,5,3,0
590,2016,1,0,2,3,19,-1,-1,0,8500,8500,1,1,0
591,2016,1,0,1,3,48,60,47313,-9,-9,0,1,1,0
592,2016,1,1,1,3,50,45,11331,25000,28000,53000,4,4,0
592,2016,2,1,1,3,48,50,30203,25000,25000,53000,4,4,0
592,2016,3,0,3,0,15,-1,-1,0,0,53000,4,4,3
592,2016,4,0,3,0,11,-1,-1,0,0,53000,4,4,3
593,2016,1,0,3,0,83,-1,-1,0,8000,8000,1,1,1
594,2016,1,1,1,3,49,40,81332,20000,26000,26000,3,2,0
594,2016,2,0,3,0,16,-1,-1,0,0,26000,3,2,3
594,2016,3,0,4,0,7,-1,-1,0,0,26000,3,2,3
595,2016,1,0,1,2,42,10,41112,5500,5500,5500,1,1,0
515,2016,3,0,4,0,5,-1,-1,0,0,8500,2,1,5
596,2016,1,0,3,0,69,-1,-1,0,15000,15000,2,2,1
596,2016,2,0,3,0,39,-1,-1,0,0,15000,2,2,6
597,2016,1,1,1,2,33,54,10131,10000,10000,10000,1,1,0
598,2016,1,0,1,3,36,40,56313,15000,22500,22500,4,3,0
598,2016,2,0,3,0,36,-1,-1,0,0,22500,4,3,4
598,2016,3,0,3,0,10,-1,-1,0,0,22500,4,3,3
598,2016,4,0,4,0,4,-1,-1,0,0,22500,4,3,5
579,2016,3,0,1,3,21,30,11312,9000,9000,60000,4,4,0
579,2016,4,0,2,3,19,-1,-1,0,0,60000,4,4,0
601,2016,1,0,1,3,75,20,30314,4000,8800,13600,2,2,0
601,2016,2,0,3,0,73,-1,-1,0,4800,13600,2,2,1
602,2016,1,0,3,0,70,-1,-1,0,4500,13400,3,3,1
602,2016,2,0,1,3,46,40,56314,8900,8900,13400,3,3,0
561,2016,2,0,1,3,24,20,57313,4000,4000,0,2,2,0
603,2016,1,1,1,3,47,12,55314,2500,-9,0,2,2,0
603,2016,2,0,3,0,19,-1,-1,0,0,0,2,2,3
604,2016,1,0,3,0,18,-1,-1,0,5000,5000,1,1,3
605,2016,1,0,1,3,33,45,20333,-9,-9,0,2,2,0
605,2016,2,1,1,3,33,45,40331,-9,-9,0,2,2,0
606,2016,1,0,3,0,66,-1,-1,0,4200,8700,2,2,1
606,2016,2,0,1,3,63,6,57313,300,4500,8700,2,2,0
529,2016,2,1,1,3,46,25,41312,8000,8000,0,5,4,0
529,2016,3,0,1,3,18,15,53314,0,0,0,5,4,0
529,2016,4,0,3,0,13,-1,-1,0,0,0,5,4,3
529,2016,5,0,4,0,2,-1,-1,0,0,0,5,4,5